dtime,8.75E-09,9.00E-09,9.52E-09,1.01E-08,1.07E-08,1.13E-08,1.19E-08,1.26E-08,1.33E-08,1.41E-08,1.49E-08,1.58E-08,1.67E-08,1.77E-08,1.87E-08,1.98E-08,2.10E-08,2.22E-08,2.35E-08,2.49E-08,2.64E-08,2.79E-08,2.96E-08,3.13E-08,3.32E-08,3.52E-08,3.73E-08,3.95E-08,4.19E-08,4.44E-08,4.71E-08,5.00E-08,5.31E-08,5.63E-08,5.98E-08,6.35E-08,6.75E-08,7.18E-08,7.63E-08,8.12E-08,8.64E-08,9.20E-08,9.81E-08,1.05E-07,1.12E-07,1.19E-07,1.27E-07,1.36E-07,1.45E-07,1.56E-07,1.67E-07,1.79E-07,1.92E-07,2.07E-07,2.23E-07,2.40E-07,2.59E-07,2.80E-07,3.03E-07,3.29E-07,3.57E-07,3.88E-07,4.23E-07,4.61E-07,5.03E-07,5.50E-07,6.02E-07,6.60E-07,7.25E-07,7.97E-07,8.36E-07
0,124,347,349,436,693,820,976,1280,982,1680,1720,2180,2200,2270,3100,3310,3570,3950,4400,4360,4900,5060,5200,5670,6270,6420,6620,6580,6880,6900,6940,7250,7140,6950,7100,6770,6950,6410,5980,5380,5030,5070,4290,3750,3590,3260,2670,2390,2160,2090,1850,1430,1580,1470,1430,1080,937,726,536,419,250,247,137,133,92.8,47.7,30.2,15.5,15.9,16.3,24.6
0.0035,250,520,200,480,539,683,884,1170,1400,1840,1920,1670,2460,2810,3170,3190,3290,3690,3840,4410,4890,5140,4930,5460,6380,6070,6270,6940,6440,7330,6690,7180,7140,7010,7060,7010,6290,6300,5960,5580,5140,4880,4420,3910,3520,3240,2630,2480,2120,2020,1810,1630,1530,1400,1130,1020,878,760,631,460,306,215,93.1,111,78.5,51.4,45.1,38.7,7.88,20.4,8.15
0.0069,311,290,498,480,616,650,824,1140,1300,1550,1540,1820,2830,2280,3160,3350,3620,3940,4100,4400,4980,4700,5260,5920,5730,6190,6930,6520,6840,6790,6940,6880,6880,7130,7280,7180,6830,6490,5790,5400,5140,4820,4000,4080,3400,3090,2960,2470,2100,1970,1730,1640,1450,1440,1170,1010,1010,763,506,386,288,267,182,107,75,66.1,30.1,19.3,35.7,20.4,8.15
0.0104,250,464,399,742,578,785,824,1360,1330,1510,1940,2080,2150,2450,2760,3180,3380,3700,4350,4420,4790,5240,4880,5800,6230,6010,6690,7050,6840,6950,6890,7310,7260,6740,6850,7210,6870,6710,5970,5690,5160,4810,4560,3910,3720,3210,2740,2460,2220,1930,1820,1660,1450,1330,1080,1080,932,678,573,392,313,212,141,136,99.9,80.6,60.2,3.91,23.8,8.06,8.15
0.0139,124,405,498,611,770,1090,1280,1420,1790,1950,1940,2170,2310,2810,3100,3330,3580,3990,4260,4380,4800,5350,5640,5310,5900,6320,6050,6300,7250,6940,7070,7380,7340,7030,7150,7240,6900,6140,6560,5570,5110,5120,4320,3920,3590,3110,2910,2450,2220,2030,1780,1700,1490,1380,1350,1210,922,765,587,347,271,193,122,67.3,78.6,80.6,37.7,19.4,23.8,16.3,32.9
0.0174,250,464,399,872,1080,1400,1220,1770,1570,1700,1660,2550,2510,3390,2750,3390,3500,3720,4420,4690,4880,4860,5210,5490,5850,6280,6160,6340,6420,6740,6570,7010,7200,6970,6980,7250,6830,6600,5900,5560,5060,4600,4410,3490,3500,3100,2650,2620,2170,2190,1880,1620,1550,1380,1240,1070,975,694,488,399,244,220,146,96.6,92.8,55.1,41.5,31,7.88,12.2,24.6
0.0208,313,520,549,1000,848,1130,1340,1340,1720,1660,2360,2380,3110,2960,3190,3290,3600,4150,4240,3980,4680,4980,5260,5620,5880,6240,6410,6890,6640,6950,6820,7050,7240,7240,7470,6920,7090,6590,5980,5670,5340,4870,4250,3810,3680,3060,2590,2560,2250,2150,1670,1810,1590,1400,1180,1120,980,682,525,394,268,248,178,99.9,99.9,44.1,45.1,31,15.9,12.2,16.5
0.0243,497,520,748,786,1270,1230,1800,2100,2090,2030,2240,2800,3040,2740,3260,3130,3800,3960,3990,4300,4670,4790,5270,5640,5920,5960,6530,6270,6410,7090,6820,7070,7230,7140,6900,6740,6940,6400,6010,5300,5560,4820,4290,4070,3510,3140,2900,2410,2260,2160,1860,1670,1570,1380,1310,1070,938,700,561,372,267,208,162,114,74.9,47.7,60.2,23.2,23.8,20.4,16.5
0.0278,500,579,1150,1000,693,1370,1280,1880,2160,2240,2640,2400,2750,2920,3250,3610,3820,4010,3880,4100,4350,5000,5240,5290,5800,6370,6280,6560,6390,6780,7400,7030,7330,6830,7130,7110,6800,6260,6040,5730,5260,5020,4330,3870,3840,3280,2850,2630,2230,2140,1940,1800,1620,1360,1260,967,1030,715,552,399,271,233,144,94.9,104,47.7,49,23.2,15.9,16.3,16.5
0.0312,187,579,498,786,770,1160,915,1420,1940,2300,2520,2780,2780,3160,3150,3340,3750,3950,4060,4470,4650,4830,5320,5680,5940,6260,6510,6770,6590,6910,6830,7040,7400,7130,7260,6820,6910,6820,6280,5550,5210,4880,4730,4120,3700,3310,3000,2710,2110,2120,1910,1700,1550,1370,1320,1150,877,782,620,431,297,251,129,122,118,58.6,41.5,23.2,23.8,0,16.5
0.0347,250,694,698,1050,1230,957,1980,1390,1740,2630,2460,2400,3030,2800,3300,3370,3520,3950,4400,4120,4700,5000,5140,5560,5560,6050,6690,6430,6840,6990,6820,6530,7030,7080,7270,6950,6690,6500,6080,6130,5250,4910,4540,3680,3440,3360,2830,2310,2330,2220,1850,1680,1470,1570,1210,1030,971,805,617,468,304,270,162,85.9,96.4,54.9,33.9,31,4.01,12.2,8.15
0.0382,250,288,498,872,1000,1540,1460,1830,1960,2300,2300,3000,3170,3240,3140,3270,3820,4230,4070,4370,5060,5020,5370,5270,5700,6130,6350,6620,6900,6890,7270,7100,7180,7510,7240,7290,7020,6730,6180,5820,5340,4940,4350,3940,3590,3010,2990,2550,2220,2160,1870,1680,1430,1460,1340,1120,905,769,619,419,352,239,141,88.4,71.4,58.6,22.6,31,11.9,24.3,24.6
0.0417,313,464,549,1130,924,1160,1310,1550,1500,2010,2620,2570,3090,3000,3390,3400,3700,3940,4490,4510,4800,5230,5170,5680,5640,6330,6340,6630,6860,6560,6960,7130,7160,7090,7150,6900,6740,6420,6220,5970,5120,4820,4430,4010,3650,3420,2970,2630,2280,2040,1910,1620,1580,1440,1200,1220,913,809,550,494,368,161,153,83,114,66.1,33.9,19.4,19.9,28.4,8.15
0.0451,250,520,399,698,1270,1200,1130,1530,1870,2170,2360,2310,3010,3480,3350,3460,3910,3520,3960,4460,4900,5080,5150,5350,5700,5870,6250,6840,7010,6660,7200,7460,7220,7200,7250,6980,6820,6640,6370,5690,5220,4920,4230,4270,3680,3230,3010,2750,2450,2070,1840,1760,1780,1480,1290,1120,1110,794,581,411,295,209,142,124,89.3,51.4,30.2,54.2,11.9,4.11,32.9
0.0486,313,464,349,872,1040,922,1160,2120,1330,2040,2240,2420,2990,3040,2990,3330,3570,3910,4000,4470,4450,4730,5340,5290,5910,6040,6310,6980,6900,6320,7000,7050,7180,6940,6990,7250,7400,6890,6370,5930,5560,5090,4720,3990,3710,3250,3020,2590,2450,2090,2040,1890,1680,1480,1210,1170,997,731,588,377,322,236,106,121,78.6,55.1,45.3,34.8,15.9,20.4,8.15
0.0521,250,464,498,653,693,820,1100,1520,1920,1640,1820,2190,2690,3370,3150,3350,3520,3590,4100,4220,4630,5380,5190,5380,5550,6030,6080,6670,6860,6610,7030,6620,7140,7430,7180,6910,6870,6790,6240,6030,5450,4860,4680,4290,3900,3370,3110,2690,2520,2290,2030,1730,1630,1410,1380,1240,967,707,641,382,369,168,121,109,50,58.6,30.2,38.7,27.8,24.3,0
0.0556,250,173,648,523,846,957,1010,1580,1450,1750,2040,2350,2630,3070,3160,3170,3540,3840,4500,4740,4120,4850,5120,5580,6120,6000,6380,6430,6540,6470,7110,7200,7020,7320,7230,7410,7020,6710,6190,6110,5660,5030,4820,4190,3760,3370,3220,2880,2350,2280,2040,1870,1690,1410,1310,1250,926,704,552,393,300,238,180,125,78.6,47.7,33.9,31,15.9,20.4,8.15
0.059,313,290,549,523,963,683,1070,1550,1250,1990,1760,1970,2500,2600,2820,3200,3610,3910,4020,4110,4670,4680,5220,5050,6050,5920,5870,6440,6750,7060,7010,7320,7210,7740,7450,7390,7730,7090,6430,5780,5550,5160,4660,4250,3790,3650,3240,2930,2550,2230,2090,1800,1670,1530,1340,1260,983,746,575,444,302,182,124,112,67.8,51.4,37.7,11.6,19.8,16.3,0
0.0625,63.1,115,349,655,924,854,579,1550,1380,1790,1860,2350,2130,2490,3280,3070,3540,3670,3700,4180,4130,4920,5030,5600,5660,6400,6400,6680,6740,6930,6980,7540,7300,7530,7290,7160,7300,6870,6420,6310,5670,5470,4800,4520,3890,3570,3220,2710,2590,2200,2130,1810,1650,1460,1390,1290,1090,886,634,436,239,196,150,107,78.5,58.6,67.9,31,11.9,12.2,0
0.066,187,0,349,655,539,615,1100,734,1420,1280,2040,2130,2450,2360,2940,3030,3450,3600,3550,4100,4500,4880,4830,5280,5630,5480,6360,6610,6950,7010,6800,7330,7440,7510,7630,7520,7450,6900,6610,6200,5760,5370,4920,4470,4170,3940,3600,3250,2660,2340,2230,1670,1560,1400,1350,1160,1040,828,739,425,324,254,158,118,89.3,95.3,22.6,27.1,15.9,12.2,24.6
0.0694,63.1,115,299,524,809,648,824,1140,1640,1570,2080,2040,2330,2570,2840,3260,3100,3190,4190,4310,4290,4480,5030,5310,5740,6010,6500,6660,6940,7150,7130,7180,7710,7520,7710,7720,7330,7080,6820,6210,6100,5220,5060,4470,4110,3830,3360,3140,2630,2230,2180,1830,1680,1380,1490,1110,978,839,572,440,338,247,155,119,75,95.3,52.8,34.8,11.9,8.06,24.6
0.0729,0,115,498,480,654,683,672,1030,1250,1350,1860,2000,2100,2270,2460,2910,3100,3830,3910,3830,4570,4740,5310,5280,5580,5980,6120,6500,6740,6890,7350,7560,7630,7790,7360,7610,7500,7260,6890,6550,6020,5600,4870,4880,4310,3940,3160,3140,2610,2370,2340,1890,1790,1600,1420,1200,1030,846,670,483,414,253,147,105,89.2,62.4,49,23.2,15.9,0,8.15
0.0764,124,173,498,305,578,581,793,843,1450,1330,1380,1730,2200,2330,2810,2890,3030,3390,3770,4230,4010,4820,4700,5250,5210,6030,6470,6370,6870,6970,7330,7190,7430,7750,7250,7510,7300,7160,7020,6520,6050,5620,5040,4950,4060,3780,3440,3190,2720,2470,2180,1970,1860,1560,1480,1260,1020,791,706,460,290,233,168,89.6,75,84.3,33.9,19.4,7.88,20.4,8.15
0.0799,63.1,173,498,392,424,376,976,1090,1030,1110,1740,2040,2120,2160,2530,2890,3280,3390,3570,3820,4170,4630,5060,4790,5630,6040,6600,6770,6850,7230,7490,7470,7810,7550,7950,7790,7490,7370,6410,6850,6370,5770,5210,4780,4300,3630,3590,3120,2750,2370,2180,1920,1760,1670,1460,1320,1030,803,595,479,295,231,133,119,93,55.1,49,31,19.9,8.06,16.5
0.0833,124,58.5,498,436,385,683,550,1140,1370,1480,1460,1670,1880,2540,2420,3090,3270,3030,3610,4170,4370,4410,5080,5450,5360,5570,6400,6390,6400,6630,7330,7110,7450,7920,7520,7810,7120,6960,7170,6950,6200,5690,5380,5100,4200,4000,3490,3320,3060,2490,2360,2030,1760,1580,1460,1310,1110,826,630,531,381,256,185,86.1,67.8,47.7,37.7,42.6,27.8,12.2,16.5
0.0868,63.1,115,299,350,616,683,763,817,1060,1280,1640,1600,1830,2340,2500,2430,3370,3160,3460,4180,4570,4220,5040,5100,5330,5650,6390,6570,6930,6660,7050,7450,7490,7430,7840,8270,7860,7290,7140,6730,6240,5780,5230,5010,4580,4100,3740,3090,2750,2510,2370,1970,1670,1430,1540,1350,1100,988,624,455,327,237,224,79.2,111,51.4,26.4,15.5,19.8,12.2,32.9
0.0903,63.1,290,149,392,385,991,915,789,1200,1220,1320,1770,2030,1920,2470,2670,2510,3050,3260,3940,3930,4350,4670,5080,5680,5590,6300,6270,6730,7050,7370,7470,7470,7840,8160,7830,7520,7350,7200,6410,6370,5800,5210,4840,4350,3870,3710,3170,2730,2660,2260,2050,1710,1540,1550,1300,1150,952,624,517,361,252,182,114,100,58.6,22.6,23.2,4.01,28.4,16.5
0.0937,63.1,173,50.4,350,654,581,579,626,1030,1370,1620,1330,2260,1830,2310,2500,3150,3200,3340,3660,4170,4540,4760,5170,5650,5740,6160,5990,6520,7210,7360,7470,7530,7580,8090,7500,7650,7450,6940,6830,6500,5710,5470,5230,4410,4020,3500,3220,3010,2500,2380,2180,1780,1500,1420,1280,1140,830,589,488,296,286,156,135,114,58.6,52.8,31,7.88,12.2,8.15
0.0972,187,58.5,200,392,270,546,458,789,909,974,1100,1710,1800,2220,1890,2060,3040,3400,3500,3460,3910,4030,4850,5150,5680,5770,5990,6490,6960,7150,7260,7430,7530,7810,7700,7730,7610,7510,6990,6660,6300,6110,5350,4930,4520,4270,3740,3180,2810,2540,2380,2120,1730,1680,1420,1300,1110,863,722,483,338,272,210,111,78.5,62.4,41.5,30.9,11.9,20.4,16.5
0.1007,124,232,299,392,346,274,946,708,737,1060,1480,1350,1320,1950,2280,2650,2780,2800,3900,3600,4030,4360,4560,4880,5350,5530,6160,6360,6650,6860,7320,7210,7800,7320,7530,7870,7640,7410,7130,6720,6460,6050,5370,5160,4860,4300,3540,3350,2840,2810,2230,2270,1970,1520,1460,1310,1070,797,592,421,405,270,197,93.2,71.4,62.4,64.1,38.7,19.9,12.2,24.6
0.1042,250,232,349,392,346,376,762,790,983,930,1060,1510,1520,1720,2210,2150,2690,2860,3670,3510,3940,4180,4780,5080,5360,5830,6150,6540,6890,6910,7480,7520,7990,7910,7870,7840,7690,7420,7010,6950,6310,6210,5660,5110,4510,4360,3890,3300,3050,2560,2410,2110,1920,1710,1570,1310,1090,966,667,547,292,228,159,107,118,66.1,18.9,34.8,19.9,12.2,41
0.1076,0,173,98.9,261,461,444,488,789,885,1110,941,1360,1720,1950,2230,2360,2830,2890,3280,3620,3910,4200,4520,4950,5510,5700,6010,6100,6910,6940,7110,7060,7510,8140,7840,7690,7590,7510,6940,6860,6150,6020,5720,5190,4770,3980,3840,3470,3080,2750,2320,2100,1970,1880,1520,1240,1080,887,683,538,363,303,197,169,118,47.7,41.5,23.2,15.9,4.11,16.5
0.1111,0,115,200,523,154,444,732,790,859,1040,1220,1400,1450,1750,2270,2250,2770,2920,3290,3440,3860,4140,4740,5120,5260,5390,5740,6310,6700,6880,7370,7350,7530,7860,7790,7810,7560,7610,7010,7050,6510,5970,5430,5160,4920,4220,3930,3400,3150,2630,2330,2150,1840,1850,1410,1420,1170,1000,732,548,337,248,178,101,67.9,62.4,18.9,34.8,19.9,20.4,32.9
0.1146,63.1,173,250,175,424,409,640,735,810,1240,1300,1510,1370,1800,2110,2320,2580,3080,3090,3680,3590,3960,4560,5030,5100,5780,5710,6380,6530,6880,7160,6990,7900,8090,8080,7830,7650,7690,7060,6440,6220,6340,5490,5040,4560,4260,4150,3540,3050,2820,2410,2180,2040,1730,1510,1330,1250,927,615,524,383,308,163,102,75,73.3,41.5,19.4,31.7,24.3,8.15
0.1181,63.1,0,299,348,463,615,488,735,982,1150,1400,1420,1600,2040,2160,2280,2470,2980,3340,3610,3970,3990,4700,4670,5150,5710,5870,6210,6890,6780,7290,7140,7390,7600,7720,7630,7370,7500,7420,7240,6540,6220,5810,5490,4600,4380,3890,3550,3000,2810,2350,2030,2050,1620,1590,1300,1140,968,701,460,353,260,181,101,71.4,73.3,60.2,19.4,19.9,36.5,8.15
0.1215,63.1,115,50.4,217,385,478,579,545,785,1020,1360,1550,1450,1710,2420,2080,2810,2740,3290,3130,3550,3950,4360,4910,4890,5530,6180,6190,6780,6620,7080,7330,7830,7620,8040,7890,7400,7820,7630,6680,6310,6030,5480,5020,4770,4370,3880,3380,3090,2880,2360,2220,1860,1670,1520,1210,1120,946,732,487,358,270,188,132,96.4,51.4,37.7,42.6,23.8,12.2,32.9
0.125,0,115,200,219,539,546,671,517,761,1240,1040,1690,1700,1860,2030,2520,3000,3040,3350,3690,3660,3780,4580,4820,5470,5360,6110,6040,7160,6860,7340,7640,7400,7600,7980,7710,7520,7760,7120,6960,6270,5910,5490,5300,4820,4470,4110,3650,3320,2700,2510,2270,1900,1840,1570,1230,1100,765,680,476,321,256,149,135,132,73.3,41.5,19.3,27.8,20.4,8.15
0.1285,187,58.5,248,436,577,411,702,572,541,1240,1380,1530,1770,2190,2090,2200,2610,2840,3180,3300,3760,4380,4920,5090,5370,5440,5960,5790,6540,6730,6930,7270,7310,7480,7540,7660,7750,7990,7710,7010,6510,6450,5700,5160,4760,4380,3960,3510,3160,2820,2400,2270,1960,1750,1570,1410,1120,842,741,540,377,214,165,135,71.4,69.6,45.1,38.7,15.9,12.2,0
0.1319,124,173,98.9,392,424,546,579,626,663,1020,1160,1640,1650,1970,2340,2750,2750,3220,3160,3480,4010,4420,4040,4590,5140,5300,6140,6280,6760,6960,7000,7200,7570,7670,8090,7720,7630,7440,7340,7090,6700,6480,5410,5440,5150,4450,3870,3510,3170,2700,2440,2240,2000,1840,1440,1420,1060,841,664,594,399,230,203,126,93,47.7,49,46.5,27.8,8.06,8.15
0.1354,0,58.5,50.4,86.6,500,581,457,599,565,907,1120,1380,1390,2010,2200,2430,2680,3030,2950,3940,3870,4230,4530,4920,5040,5430,5660,6320,6880,6920,7080,6930,7190,7870,7610,7900,7680,7880,7350,6980,6380,6440,5670,5410,4920,4180,3980,3560,2930,2850,2510,2160,1850,1850,1650,1350,1190,927,721,455,297,247,154,137,89.3,47.7,22.6,31,7.88,24.3,0
0.1389,63.1,232,149,175,463,409,427,735,885,862,1300,1270,1740,1740,2230,2520,2630,2920,3220,3310,3740,3910,4580,4450,5210,5540,5870,6350,6470,7090,7390,6790,7580,7380,7920,7660,7270,7820,7220,7120,6680,6230,5850,5440,4800,4350,3900,3660,3340,2820,2630,2210,2070,1800,1590,1360,1230,929,669,566,375,258,117,116,114,51.2,33.9,31,31.8,16.3,8.15
0.1424,63.1,173,149,350,309,513,610,789,663,930,1440,1600,1740,2010,2310,2650,2700,2620,3370,3460,4080,4180,4420,5010,5240,5580,5720,6100,6550,6690,6720,7400,7310,7720,7680,7800,7500,7540,7410,7020,6820,6120,5630,5400,5010,4640,4160,3590,3420,2700,2500,2250,1990,1840,1440,1390,1190,833,771,481,412,237,187,112,104,69.6,41.5,19.3,23.8,16.3,0
0.1458,124,115,250,261,309,444,366,789,810,907,1300,1350,1670,1600,2380,2340,2470,3260,3020,3450,3700,4200,4470,4490,5190,5930,6110,6290,6530,6870,7090,7070,7080,7710,7740,8060,7830,7460,7070,6690,6540,5990,5740,5570,4820,4380,3900,3460,3050,2830,2510,2280,2050,1710,1660,1370,1100,940,738,459,304,289,176,145,139,69.8,26.4,31,11.9,4.11,8.15
0.1493,0,58.5,349,350,270,546,702,789,1010,775,920,1400,1370,1810,1990,2190,2410,3020,3370,3460,3580,4120,4610,4600,5100,5450,5280,6280,6390,6280,6870,7120,7070,7440,7850,7740,7850,7510,7280,6980,6300,6050,5850,5370,4790,4500,4000,3560,3040,2630,2520,2420,1910,1680,1620,1500,1140,909,666,595,329,250,174,164,100,36.7,60.2,27.1,15.9,16.3,8.15
0.1528,0,173,149,305,346,546,550,572,737,1080,1080,1350,1740,1980,2090,2430,2860,2700,3370,3400,3990,4250,4200,4750,5170,5060,5850,5480,6400,6950,6950,7280,7330,7650,7780,7930,7930,7620,7540,6890,6860,6130,5950,5420,4960,4410,3910,3700,3410,2930,2390,2230,1960,1720,1590,1320,1160,992,713,528,396,334,175,96.6,78.5,58.6,30.2,19.3,19.9,20.4,16.5
0.1562,63.1,58.5,98.9,131,424,411,488,626,613,951,960,1440,1640,1650,2280,2230,2740,2850,3130,3830,4120,4040,4400,4640,5270,5530,5960,6200,6310,7280,6720,7370,7220,7490,7730,7450,7700,7520,7200,7310,6050,6520,5850,5270,4820,4270,4350,3450,3280,2730,2600,2240,1880,1720,1650,1420,1240,911,730,521,380,330,132,139,75,47.7,30.2,19.3,7.88,28.4,24.6
0.1597,63.1,58.5,200,175,385,274,641,571,736,664,1160,1310,1550,1430,2200,2270,2480,2720,3030,3470,3860,4100,4630,4800,5010,5630,5720,5790,6620,6530,6880,7490,6650,7040,7540,7810,7570,7160,7380,6970,6760,6210,5340,5020,4910,4680,3760,3690,3010,2910,2420,2280,2050,1730,1730,1320,1130,922,620,467,302,351,243,138,104,80.8,30.2,19.3,0,24.3,41
0.1632,63.1,115,200,219,309,341,305,735,737,863,921,1050,1690,1890,1860,2340,2500,2510,2980,3350,4060,4360,4380,4590,5290,4930,5620,6190,6550,6200,6830,6640,6800,7320,7660,7800,7400,7490,7050,6730,6300,5890,5700,5130,4990,4410,4210,3650,3390,2730,2340,2250,1940,1890,1670,1370,1300,886,707,514,356,278,221,123,89.2,58.6,18.9,38.7,11.9,16.3,8.15
0.1667,187,115,200,175,385,444,519,708,614,951,1260,1510,1450,1660,2030,2710,2810,2650,3330,3320,3770,4140,4480,4690,4850,5410,5780,5800,6170,6970,7010,7110,7510,7320,7550,7390,7520,6870,7370,6940,6390,6090,5590,5060,4850,4290,4060,3590,3080,2840,2440,2260,2140,1840,1660,1220,1180,985,715,417,360,305,131,109,118,54.9,56.4,27.1,23.8,24.3,16.5
0.1701,124,115,250,261,346,615,550,816,933,1060,1120,1130,1570,1680,2340,2110,2820,2730,3460,3420,3900,4330,4500,4830,5060,5180,5710,5790,6220,6890,7260,6780,7280,7360,7530,7290,7580,7440,6770,6870,6460,5890,5760,5260,5010,4540,3990,3630,2980,2730,2570,2240,1840,1880,1650,1480,1270,985,718,571,347,269,126,104,96.4,54.9,49,31,27.8,20.4,8.15
0.1736,0,115,498,175,270,615,457,545,810,841,901,1160,1440,1870,2070,2150,2620,3110,3220,3510,4010,3880,4650,5060,5130,5450,5900,6010,6350,6460,6460,7020,7250,7240,7140,7690,7150,7440,6900,6850,6340,5840,5510,5170,4820,4160,3860,3770,3300,3030,2530,2240,2010,1760,1680,1370,1230,859,706,539,442,252,143,134,96.4,62.4,37.7,27.1,23.8,12.2,0
0.1771,187,232,98.9,261,654,581,519,654,737,796,1240,1560,1440,1800,2030,2520,2530,2800,3150,3700,4170,4330,4390,4460,4950,5460,6170,6490,6180,6370,6670,6940,7320,7410,7290,7480,7350,7090,6770,6490,6090,6100,5990,5030,4760,4400,3910,3440,3040,2720,2360,2180,2040,1920,1550,1470,1190,982,781,476,423,242,132,112,67.8,69.6,49,11.6,35.7,16.3,16.5
0.1806,124,173,349,480,231,307,488,409,811,1110,961,1420,1500,1630,1970,2080,2420,2910,3030,3850,3750,4220,4260,4650,5270,5530,5870,6340,6210,6560,6660,7140,6910,7050,7270,7370,7460,7270,6790,6710,6340,6060,5970,4810,4650,4250,4130,3250,3110,2760,2700,2240,1910,1810,1680,1350,1110,905,776,497,358,229,234,117,75,66.1,49,27.1,7.88,12.2,0
0.184,63.1,232,149,480,500,274,731,572,1030,1020,1180,1380,1700,1780,1750,2510,2530,3030,3320,3540,3890,4500,4540,5090,5030,5600,5950,5980,6290,6670,6840,6870,6760,7020,7100,7430,7010,6760,6750,6490,5950,5890,5900,5220,4480,4180,3870,3530,2910,2770,2500,2230,2100,1700,1450,1350,1130,940,680,516,398,246,174,151,89.2,62.4,33.9,46.4,31.8,24.3,8.15
0.1875,187,173,399,175,309,581,702,735,860,1110,1280,1070,1420,1900,1870,2130,2600,3000,3170,3450,3650,3800,4390,4680,4990,5630,5640,6000,6380,5990,6620,6810,6820,7230,7060,7240,6950,7000,6830,6810,6350,5760,5530,5110,4750,4200,3730,3440,3120,2630,2330,2270,2090,1740,1710,1470,1190,940,678,532,333,252,172,116,89.3,55.1,49,34.8,19.8,16.3,8.15
0.191,250,173,200,392,654,478,519,899,885,930,1160,1270,1640,1840,1820,2130,2510,2590,3200,3510,3790,4310,4020,4360,4800,5450,5100,5840,6150,6620,6700,6820,6830,6770,6970,6900,7160,6790,6620,6330,5780,5630,5370,5020,4510,4500,3710,3460,3130,2730,2490,2120,2010,1810,1550,1290,1130,920,748,500,341,235,194,121,60.7,62.4,49,31,15.9,4.11,41
0.1944,63.1,58.5,299,305,385,513,274,735,885,840,1000,1060,1500,1720,1990,2250,2670,2860,3500,3680,3810,4040,4540,5130,5200,5470,5810,5960,6440,6540,6350,6610,6490,6800,7010,7140,6850,7020,6980,6540,5840,5730,5520,5190,4690,4220,3790,3360,3080,2560,2570,2040,1870,1840,1490,1490,1090,903,706,497,349,265,163,105,82.1,40.4,45.3,15.5,11.9,16.3,8.15
0.1979,124,115,149,261,500,581,305,681,785,995,1040,1310,1570,1340,1920,1970,2410,2750,3100,3490,3710,4370,4480,4650,5150,5340,5860,5950,6220,6600,6480,6870,6590,6960,6870,6660,6910,6810,6650,6370,5820,5850,5300,4680,4560,4330,3880,3480,3410,2910,2520,2090,1970,1880,1430,1370,1160,874,799,433,403,278,222,138,82.1,55.1,56.4,38.7,7.88,4.11,16.5
0.2014,63.1,288,250,305,578,614,427,762,1150,863,1200,1560,1520,1740,1710,2160,2540,2960,3050,3550,3560,3950,4300,4670,5360,5320,5650,5790,6430,6260,6490,6610,6900,6740,6650,6840,7040,6690,6260,6120,6010,5580,5340,4920,4470,4170,3920,3550,3190,2730,2470,2040,2130,1910,1510,1270,1190,944,629,475,373,179,136,155,136,62.4,75.3,38.7,7.88,12.2,0
0.2049,124,58.5,349,392,539,546,824,654,1080,819,800,1750,1540,1400,2020,2200,2290,3010,2970,3470,4090,3870,4790,4830,5050,5440,6000,6260,6350,6240,6440,6720,6740,6350,6210,6960,6690,6310,6650,6210,6060,5690,5260,4880,4690,3900,3970,3280,2990,2480,2490,2310,1880,1560,1500,1390,1090,1090,795,516,386,284,179,138,78.5,69.6,22.6,42.6,35.7,4.11,8.15
0.2083,124,288,399,305,578,513,793,926,884,1150,1140,1350,1260,1830,2090,1960,2340,2740,3320,3560,3580,4150,4390,4560,5420,5630,5730,5700,6340,6510,6340,6950,6860,6640,6520,7120,6410,6400,6570,6030,6060,5080,4920,4870,4390,3940,3640,3540,3170,2860,2400,2090,1770,1870,1370,1380,1030,929,734,435,379,234,185,155,82.1,55.1,49,19.3,35.7,40.6,0
0.2118,63.1,579,250,305,309,581,702,1140,982,1150,1240,1580,1770,1740,1980,2390,2650,2780,3290,3340,3590,4450,4390,4830,5130,5350,5540,6370,5870,6280,6450,6250,6600,6790,6610,6740,6320,6260,5930,6160,5740,5450,5220,4950,4620,3810,3470,3410,3110,2600,2350,1970,2030,1710,1320,1410,1160,1010,633,533,466,218,245,89.6,78.6,66.1,41.5,46.4,23.8,12.2,16.5
0.2153,63.1,173,149,392,385,648,641,708,835,863,1140,1350,1540,2090,2000,2690,2840,3050,3270,3650,3940,4230,4490,5170,5180,5670,5450,6010,5820,6220,6320,6500,6450,6480,6610,6530,6420,5950,5990,5890,5650,5130,4920,4680,4360,4060,3470,3350,3040,2740,2360,1940,2070,1760,1400,1390,1050,904,753,484,325,244,166,105,107,40.4,75.3,34.8,7.88,16.3,16.5
0.2187,0,232,349,219,616,546,581,708,835,1280,1240,1380,1680,1870,2070,2420,2470,2870,3560,3700,3910,4470,4310,5130,5020,5160,5690,5850,6120,6380,6250,6720,6610,6600,6670,6630,6240,6380,5980,6280,5270,5160,4850,4410,4340,3940,3580,3390,2980,2540,2230,2140,1940,1730,1530,1370,1120,879,707,504,357,237,180,154,92.8,73.3,37.7,31,4.01,8.06,16.5
0.2222,63.1,115,349,305,654,513,672,926,1150,1080,1100,1710,1930,2030,2110,2370,2750,2670,3250,3540,3940,4390,4690,4920,5550,5640,6220,6040,6170,6410,6640,6360,6440,6200,6680,6680,6120,6270,6090,5870,5640,5260,5050,4400,4360,3810,3390,3210,2890,2690,2410,2050,1870,1840,1370,1380,1180,913,723,525,391,234,105,126,71.4,33,18.8,11.6,23.8,16.3,24.6
0.2257,124,347,149,261,539,478,641,1010,638,1480,1420,1840,1400,1600,1950,2430,2480,3220,3320,3800,4220,4480,4750,5200,5210,5670,5640,5800,6310,6160,6270,6740,6170,6160,6390,6740,6370,6250,6100,5650,5320,5130,5020,4540,4410,4230,3550,3160,3030,2480,2360,2020,1920,1740,1510,1490,1080,927,797,484,338,241,157,101,85.7,99,18.9,31,15.9,0,8.15
0.2292,63.1,173,200,392,346,512,488,517,1080,1060,1200,1350,1450,1900,2130,2530,2890,3280,3790,3780,4360,4370,4820,5590,5280,5590,6160,6120,6640,6970,6460,6280,6720,6400,6300,5950,6350,5970,6190,5720,5530,5230,4870,4710,4300,4040,3530,3270,3340,2600,2300,2020,1940,1680,1480,1230,1210,915,729,518,364,245,190,110,104,80.8,33.9,19.4,15.9,4.11,8.15
0.2326,187,115,200,86.6,500,513,702,763,1100,928,1460,1800,1900,1960,2110,2830,3010,3160,3840,3920,4200,4820,5070,5410,5470,5940,5930,6580,6750,6530,6240,6430,6700,6460,6490,6180,6260,6150,6000,5660,5520,5440,4950,4560,3820,3810,3530,3110,3000,2550,2250,2170,1920,1800,1570,1400,1210,780,705,475,396,250,163,80.5,104,51.4,30.2,3.91,19.9,8.06,8.15
0.2361,63.1,173,349,86.6,270,478,550,844,737,1150,1180,1760,1970,2100,2010,2630,2830,3080,3840,3920,4340,4770,5030,5010,5710,6240,6410,6370,6540,6450,6580,6240,6170,6330,6380,6370,6010,5650,5940,5660,5480,5210,4720,4410,4320,4090,3770,3090,2780,2620,2340,2060,1750,1690,1510,1220,991,897,689,495,400,245,206,100,74.9,66.1,37.7,27.1,11.9,20.4,16.5
0.2396,250,173,98.9,86.6,424,546,855,1060,1280,1500,1200,1750,1780,2330,2400,2700,3160,3820,3690,4300,4660,4890,4910,5130,5310,5960,6160,6370,6450,7070,6570,6880,6700,6280,6130,6180,6060,6250,6040,5710,5580,4890,4920,4430,4300,3930,3470,3140,2860,2550,2340,2250,1960,1600,1640,1420,1080,905,692,540,328,233,173,121,57.1,43.9,33.9,38.7,19.9,12.2,8.15
0.2431,187,115,200,436,770,307,671,734,1030,1080,1520,1600,1900,2270,2640,2700,3220,3320,3700,3680,4400,4930,4940,5290,5830,6030,5820,6590,6150,6450,6250,6570,6660,6160,6130,6390,6020,6030,5710,5670,5450,4750,4680,4440,4180,3710,3330,3310,3100,2560,2170,1960,1770,1540,1560,1200,1220,814,622,562,327,259,169,128,82.1,77,26.4,34.8,19.8,12.2,24.6
0.2465,63.1,290,200,175,346,615,671,626,884,1260,1360,1650,1850,2400,2570,2740,2830,3610,3870,4200,4390,4790,4780,5060,5790,5840,6030,6200,6520,6630,6280,6150,6570,6390,5960,6080,6240,5830,5580,5580,5660,4920,4560,4190,4070,3910,3600,2960,2810,2570,2220,2040,1950,1790,1460,1260,1100,974,696,467,302,244,167,80.6,53.6,51.4,56.4,23.2,7.88,8.06,8.15
0.25,63.1,232,299,261,385,683,397,763,1230,1370,1500,1770,2130,2630,2740,2740,2940,3270,4000,3890,4650,4840,4840,5070,5700,5570,5980,6150,6310,6420,6420,6630,6150,5960,6210,6120,5880,6010,5780,5560,5310,4630,4590,4340,4270,3650,3360,3120,2950,2450,2200,2240,2040,1720,1470,1340,1220,842,673,447,291,234,180,149,64.3,84.3,49,19.4,4.01,20.4,24.6
0.2535,187,232,299,480,578,513,702,709,1400,1550,1420,1560,2050,2450,2320,2970,2730,3500,3610,4290,4530,4780,5160,5740,5320,5920,6110,6100,6000,6160,6070,6750,6090,6300,6070,6030,5860,5900,5780,5200,5210,5000,4890,4460,4140,3850,3550,3220,2940,2430,2140,2190,1920,1720,1510,1240,1130,872,562,420,344,236,178,123,96.4,139,37.7,31,11.9,24.3,16.5
0.2569,63.1,232,597,217,385,581,610,1280,1180,1500,1460,1840,1730,2400,2890,2960,3320,3520,4080,4130,4720,4960,5160,5270,5510,5970,5810,6020,6240,6150,6100,6040,6190,6020,6100,5900,5790,5820,5880,5420,5320,5100,4990,4290,4120,3750,3570,3060,2730,2460,2220,2120,1980,1660,1450,1320,1170,949,731,456,429,225,172,100,96.4,51.4,33.9,38.7,27.8,12.2,16.5
0.2604,187,405,149,350,500,615,763,843,1280,1420,1640,1380,2460,2250,2640,3230,3500,3430,3900,4010,4790,4600,4930,5600,5900,5890,5950,6290,6270,5930,6280,5880,6280,6240,5950,6070,5800,5830,5820,5420,5280,4630,4600,4210,3970,3660,3530,3040,2780,2710,2300,2120,1740,1730,1370,1350,958,863,666,539,366,237,174,97.2,67.8,51.4,37.7,19.4,19.9,36.5,8.15
0.2639,124,290,248,436,732,683,854,1200,1230,1530,1860,2130,1970,2250,2750,3180,3290,3590,4230,4740,5270,5030,5380,5420,5470,5640,6000,6130,6430,6290,6470,6110,6280,5930,5770,5960,5710,5900,5640,5210,5170,4890,4480,4450,3930,3830,3620,3110,2890,2550,2300,1970,1940,1640,1360,1330,1050,951,739,481,379,197,155,70.9,85.7,62.4,45.1,31,19.9,32.6,8.15
0.2674,187,405,149,350,539,717,1040,1030,1280,1570,1960,1760,2530,2780,2910,2980,3450,4130,4090,4580,4850,5220,4950,5350,5890,6170,6270,6360,6430,6190,5860,5840,6240,5970,6000,5530,5890,5710,5680,5510,4990,4850,4320,4080,3970,3820,3430,3300,2840,2470,2220,2080,1890,1660,1440,1300,1140,869,744,507,374,194,188,121,104,55.1,30.2,31,19.9,4.11,16.5
0.2708,187,405,349,698,693,854,1160,1330,1230,1190,1840,2240,2430,2690,2970,2950,3770,3730,4210,4740,5270,5700,5030,5370,5390,6060,5880,6320,6310,6020,5950,5900,6220,5840,6010,5910,5920,5880,5540,5440,5030,4620,4370,4280,4300,3570,3330,3160,3040,2560,2310,2130,1820,1870,1380,1200,1200,736,675,545,338,315,169,96.3,104,66.1,45.1,23.2,19.9,12.2,8.15
0.2743,624,347,748,828,924,1060,1250,1230,1570,1880,1680,2310,3110,3100,2930,3680,3620,4290,4900,4420,4890,5300,5310,5480,5680,5650,5870,6010,5940,6090,6360,6290,6080,5830,5910,5790,5630,5590,5250,5390,5070,5120,4640,4610,4000,3870,3550,3210,2810,2340,2180,2040,1790,1630,1530,1340,1180,933,676,501,308,298,189,117,85.7,69.8,49,31,15.9,12.2,0
0.2778,124,405,399,698,616,991,1430,1990,1870,1900,2480,2840,2790,3550,3640,3540,3640,4390,4800,4830,5540,5340,5570,6100,5850,6300,6070,6030,6610,6280,6250,6470,6490,6270,5870,5840,6090,6060,5900,5250,5100,4730,4500,4380,3990,3730,3280,3320,2800,2500,2330,2080,1830,1610,1400,1250,999,971,687,557,405,294,228,115,100,33,60.2,34.8,7.88,8.06,0
0.2812,311,405,797,742,848,1090,1430,1660,1920,1900,1940,2580,3090,3580,3760,4020,4110,4560,4480,4950,5170,5220,5410,5930,5560,5890,5820,6420,6270,6170,5750,6160,6390,5840,6050,6030,6000,5320,5760,5260,5250,4830,4820,4530,4070,3890,3290,3090,2740,2370,2130,1940,1820,1680,1420,1410,1190,949,698,467,343,228,137,87.3,71.4,66.1,26.4,19.3,35.7,8.06,0
0.2847,187,811,648,786,1390,1130,1160,1740,2190,2240,2640,2980,3080,3490,3980,4340,4730,5020,4620,4960,5360,5490,5690,6100,6080,6230,6010,6080,6500,6320,6540,6010,6170,6340,5620,5890,5710,5730,5350,5280,5080,5010,4390,4430,4020,3800,3500,3010,2920,2730,2350,2150,1640,1680,1380,1120,964,895,727,545,369,276,161,187,78.6,51.4,45.1,15.5,19.8,4.11,8.15
0.2882,313,984,748,959,1040,1060,1650,1630,2040,2170,2660,3060,3420,3520,4100,4260,4090,5100,4970,5500,5150,5400,5940,6310,6150,5950,6430,6360,6510,6660,6580,6160,6530,5970,6010,5670,5600,5400,5440,5110,5120,4930,4550,4280,4110,3940,3460,3180,2830,2590,2100,2030,1970,1720,1480,1380,1190,963,708,471,350,319,200,102,100,58.6,26.4,31,11.9,16.3,0
0.2917,437,1040,797,1130,1040,1710,1500,1800,2110,2370,2940,3090,3310,3750,4130,4440,4590,4640,5290,5370,5820,6010,6020,5960,6150,6230,6320,6960,6360,6270,6530,6890,6240,6270,6030,5690,5970,5590,5480,5100,5140,4890,4560,4290,4250,3860,3280,3100,2800,2390,2070,2100,1960,1700,1500,1350,1240,894,692,464,415,213,156,100,85.7,51.4,37.7,34.8,15.9,20.4,8.15
0.2951,374,637,797,1130,1620,1430,1680,2230,2770,2750,2720,3130,3610,4090,4560,4690,4490,4840,5180,5460,5350,5770,5750,6360,6630,6970,7030,6530,6540,6400,6270,6420,6440,6250,6400,6070,5780,5580,5330,5730,5300,5010,4690,4210,4120,3730,3420,3130,2860,2340,2440,2170,1860,1730,1440,1390,1160,923,718,516,341,243,177,107,82.1,47.7,33.9,7.68,23.8,12.2,8.15
0.2986,500,405,797,1050,962,1160,1920,1960,2360,2190,2940,3750,3820,3710,4270,4930,4440,4800,4920,5190,5800,5700,6130,6310,6410,6390,6700,6350,6490,6610,6480,6350,6240,6330,6050,5930,5770,5640,5710,5530,5070,4830,4630,4110,4050,3540,3450,3150,2710,2640,2430,1990,1810,1620,1530,1270,1230,982,788,515,333,269,162,110,96.4,58.6,30.2,42.6,11.9,4.11,16.5
0.3021,311,752,1400,1530,1420,1470,1830,2720,2780,2720,3860,3460,3720,4300,4510,4500,4780,5390,5730,5590,6030,6020,6280,5990,6320,6430,6760,6900,6380,6830,6800,6560,6130,6210,6190,5950,5720,5330,5700,5350,5190,5000,4420,4350,4230,3610,3540,3270,2940,2590,2220,2120,1840,1660,1540,1460,1290,914,796,479,373,291,162,115,78.5,77,37.7,31,15.9,8.06,0
0.3056,187,926,847,959,1920,1600,2440,2530,3170,2920,3800,3730,4170,4180,4140,4380,4730,4860,5570,6010,6210,5850,6800,6510,6210,6420,6700,6730,7000,6850,6220,6440,6110,6090,5860,5930,5890,5340,5670,5220,4930,5100,4620,4410,3870,3650,3460,2950,2580,2460,2340,2190,1760,1670,1480,1450,1100,969,721,516,435,247,152,110,89.3,65.9,56.4,27.1,31.7,12.2,16.5
0.309,500,405,599,1400,1580,1570,2110,2560,2460,2750,3630,3200,4400,4120,4470,4260,5070,5330,5300,5500,5380,5800,6140,6590,6150,6450,7030,6880,6900,6780,6680,6310,6330,6120,5940,5890,5970,5730,5830,5050,4960,4990,4210,4220,4090,3670,3190,3250,2790,2600,2320,2090,1770,1770,1410,1310,1290,937,728,526,411,243,184,135,121,62.4,30.2,23.2,15.9,20.4,0
0.3125,250,811,698,830,1430,2320,1400,2340,2680,2680,3640,3860,3440,4360,4300,3960,4540,4840,5010,5500,5690,5280,6030,5960,6480,6060,6600,6250,6370,6490,6310,6350,6260,6160,5770,5870,5350,5350,5530,5430,4960,4460,4440,4180,3840,3510,3270,3110,2800,2410,2320,2060,1830,1470,1340,1310,1050,908,619,545,399,244,229,161,85.7,77,49,50.3,31.7,16.3,24.6
0.316,624,579,748,1310,1620,2180,1740,2290,2230,2900,3140,3730,3640,4060,4510,4280,4450,4620,5410,5390,4970,6270,6150,5930,5930,6490,6430,6320,6510,6570,6140,6160,6400,5990,5620,5310,5610,5440,5560,5360,5140,4660,4470,3890,3720,3590,3260,2840,2720,2360,2290,1940,1730,1920,1390,1390,1070,1000,684,490,396,247,178,99.8,107,88,45.1,42.4,19.9,20.4,0
0.3194,374,696,1240,1050,1730,1360,1860,2420,2260,2500,3380,3730,3390,3480,4150,4590,4720,5020,5000,4900,5370,5540,5840,6020,6320,6650,6150,6630,6640,5980,6170,6030,6190,5780,5910,5290,5520,5650,5090,4880,4900,4410,4620,4170,3870,3750,3210,2790,2770,2500,2120,1830,1890,1610,1550,1260,1180,944,706,476,368,255,157,108,92.8,69.6,56.4,38.7,11.9,44.7,16.5
0.3229,560,926,597,1180,1500,1470,2290,2890,2850,2680,3180,3080,4020,3770,3940,4310,4790,4720,4640,5230,5460,5880,6190,6340,6090,6330,6220,6240,6420,6030,6310,5760,5990,6150,6130,5630,5720,5000,5140,4810,4500,4610,4290,4280,3900,3790,3530,2920,2990,2380,2170,2040,1760,1580,1490,1220,1050,915,647,504,408,265,180,140,100,95.3,49,19.4,31.8,8.06,16.5
0.3264,437,811,1250,1130,1580,1400,1890,2210,2580,2920,2880,3570,3900,3900,4530,4500,4810,4930,5500,5840,5710,5800,6150,6190,6380,6550,6410,6530,6290,6500,6330,5970,6010,5710,5890,5840,5660,5720,5210,5080,4870,4340,4430,4270,3820,3490,3140,3100,2850,2420,2070,1900,1890,1740,1450,1320,1210,929,634,381,356,262,202,112,107,62.4,26.4,19.3,11.9,24.3,8.15
0.3299,437,1040,997,1220,1700,1840,2100,2640,2750,3100,3380,3570,3740,3930,4910,4420,5210,5380,5260,5890,5600,5950,5910,6950,6330,6490,6770,6440,6590,6690,6300,6230,6250,6020,6030,5720,5770,5620,5130,5150,4870,4720,4200,4030,4130,3520,3290,3060,2820,2490,2240,2140,1940,1650,1540,1350,1080,867,621,524,338,250,210,171,129,88,37.7,27.1,35.7,16.3,8.15
0.3333,500,811,946,1220,1660,1670,2070,2860,2410,3390,3970,4020,3870,4240,4900,4950,5490,5630,5740,5560,6130,6200,6230,6630,6260,6610,6590,6680,6440,6750,6270,6240,6400,6570,6050,5900,5960,5410,5540,5340,5010,4890,4230,4260,3850,3770,3380,2790,2900,2510,2270,2110,1930,1770,1720,1330,1210,865,697,469,388,258,153,128,107,62.4,49,54.2,15.9,20.2,8.15
0.3368,1120,926,797,1090,1460,2220,1920,2730,2920,3320,3380,4240,4370,4280,4690,4640,5400,5610,5830,5970,6750,6410,6360,6480,6490,6740,6850,6420,6870,6800,6550,6820,6590,6440,6000,5750,5660,5940,5330,4970,5260,4810,4510,4440,3670,3920,3480,3000,2730,2570,2210,2070,1970,1740,1580,1310,991,941,734,451,378,216,168,108,89.2,91.7,49,23.2,15.9,28.4,16.5
0.3403,437,752,997,1140,2270,1950,2140,2640,2850,3360,3510,3750,4130,3790,4760,5260,5090,5340,6010,6200,6230,6050,6640,7060,6480,6930,6670,6760,6910,6950,6820,6790,6800,6250,6090,6040,5900,5390,5420,5600,4810,4700,4400,4560,4080,3660,3650,3300,2900,2490,2390,2190,1900,1640,1530,1410,1130,918,791,573,384,262,104,161,99.9,73.3,37.7,58.1,31.8,32.4,0
0.3437,747,1040,797,1180,1810,1910,2500,2510,3540,3210,4030,4130,3940,4940,5150,4890,5450,5310,5630,6150,6050,6290,6780,6940,6500,7080,7090,6870,7070,6600,6430,6500,6630,6280,6080,6370,6230,5610,5370,5440,5000,5060,4500,4510,4200,3970,3720,3080,2860,2730,2360,2180,2020,1870,1720,1390,1220,954,827,454,332,248,207,121,114,73.3,41.5,31,15.9,4.11,16.5
0.3472,747,696,1150,1740,1420,1950,2260,3130,2970,3630,3910,4040,4100,4610,4800,5280,5630,5800,5790,6560,6300,6490,6630,6590,6870,6710,7320,6950,7170,6970,6650,6950,6540,6160,6410,6050,6070,5790,5710,5610,5110,4980,4570,4430,4280,3800,3460,3170,2920,2600,2330,2010,1940,1790,1540,1420,1210,975,679,573,414,261,239,119,92.8,62.4,26.4,38.7,11.9,8.06,16.5
0.3507,624,637,1300,1310,1650,2360,2500,2200,3040,3520,3520,3890,4750,4670,5010,5150,5270,6090,6000,6480,6700,6740,6410,7030,7170,7250,7380,7430,7180,7470,7250,6940,6830,6680,6520,6270,5960,5590,5880,5720,5520,5250,4860,4830,4270,4050,3800,3170,3150,2600,2530,2160,2060,1790,1630,1450,1080,1080,829,530,412,281,288,147,111,47.7,41.5,19.4,15.9,24.3,16.5
0.3542,374,1220,1240,1310,1890,2250,2380,2940,3490,3810,4380,4380,4780,4700,4690,5380,5370,6090,6430,6650,6250,6640,6920,6920,7040,7030,7440,7590,7230,7140,7380,6960,6710,6640,6210,6280,6190,5970,5750,5450,5620,4950,4820,4410,4260,3910,3800,3470,2910,3030,2620,2150,2040,1850,1650,1450,1220,836,718,545,387,263,206,159,104,77,37.7,42.6,23.8,20.2,8.15
0.3576,997,867,997,1570,1500,2080,2530,2830,3610,3920,4590,4460,4730,5340,4550,5470,5150,6100,6370,6530,6410,6490,6600,7320,7080,7320,7970,7690,7000,7240,7120,6840,6950,6810,6620,6280,5980,6260,5750,5520,5260,5060,4920,4270,4400,3910,3360,3180,3020,2970,2330,2370,2040,1770,1690,1430,1300,980,719,626,424,281,168,159,75,65.9,30.2,27.1,31.8,20.4,0
0.3611,747,752,847,2140,2000,2250,2350,3050,3910,3830,4600,4530,4560,5270,5630,5880,5850,5920,6160,6470,6290,6500,7070,7070,6890,7910,7000,7400,7140,7320,7200,6920,6980,6800,6320,6410,6120,6150,6100,5460,5150,5120,4620,4570,4220,4000,3830,3380,2970,2670,2480,2110,2040,1730,1580,1460,1270,997,723,533,448,328,191,154,121,106,30.2,19.3,15.9,16.3,16.5
0.3646,624,926,997,1570,1770,2010,2680,3050,2850,3990,4450,4280,4330,4900,5710,5750,5580,5490,6340,6280,6350,6800,6710,7310,6800,7420,7150,7480,7600,7140,7060,7010,6810,6700,6340,6500,6410,6080,5760,5840,5370,4830,4660,4460,4130,3550,3510,3380,3000,2670,2570,2350,1980,1770,1700,1440,1160,971,764,573,429,303,238,133,64.3,55.1,45.3,38.7,19.9,8.06,8.15
0.3681,187,752,1100,1610,1350,2120,2410,2150,2920,3680,3820,4100,4840,4690,5810,5330,5800,5680,6030,6160,6000,6750,6710,7090,6980,6950,7090,7760,7250,7380,7340,6910,7040,6840,6760,6480,5940,6150,5620,5820,5350,4890,4920,4900,4120,3960,3810,3310,3010,2740,2440,2290,2060,1910,1730,1380,1300,1010,788,537,479,270,212,143,104,84.3,41.5,27.1,15.9,16.3,0
0.3715,500,752,1100,1740,2040,1600,1890,2370,3000,4120,3630,4310,4370,5510,4830,5370,5390,5960,5870,6390,6720,6750,6780,6390,6940,7110,7220,7280,7560,7380,7150,7100,6590,6800,6780,6640,6330,6130,5760,5700,5190,4860,5070,4570,4130,3910,3670,3440,2960,2730,2560,2220,2110,1600,1620,1390,1280,884,835,558,393,301,217,157,82.1,77,49,61.9,43.7,8.06,24.6
0.375,687,1040,1150,1740,1620,1910,2050,2810,3360,3520,3590,3910,4230,4750,4470,4560,5640,5840,5790,6330,6220,6780,6430,6840,7140,7300,7730,7180,7360,6850,7350,7400,6890,6420,6840,6730,6040,6000,5710,5340,5620,4960,4960,4830,4450,4090,3540,3170,3090,2400,2520,2230,2080,1900,1650,1460,1120,1100,759,595,372,279,235,143,114,65.9,79,50.3,19.9,8.06,8.15
0.3785,560,811,1050,1050,1230,1880,2230,2560,3190,3720,3700,3510,4230,4930,5120,4690,5620,5830,5790,6010,6480,6630,6320,6830,7140,7030,7450,7230,7100,7450,7380,7200,6670,6720,6850,6790,6260,5820,5670,5660,5510,5190,4260,4670,4410,3900,3740,3330,3270,2710,2470,2110,1940,1680,1610,1440,1170,1020,775,578,409,336,173,119,129,69.6,60.2,31,23.8,0,41
0.3819,374,811,997,1180,1420,1910,2080,2830,2530,3120,3740,3420,4100,4610,5080,5330,5500,5340,6060,5960,6580,6880,6740,6980,7400,7420,7520,7650,7800,7510,7350,6930,6810,6700,6350,6290,5900,5940,5760,5650,5620,5180,5220,4550,4400,4030,3820,3250,3120,2530,2410,2200,1920,1800,1690,1410,1250,1050,658,594,407,298,171,132,71.4,91.7,41.5,46.4,19.8,20.4,16.5
0.3854,374,926,1200,916,1810,1470,1800,2150,2600,3230,3080,3530,3820,4310,4440,4970,5130,5160,5810,6330,6240,6480,6250,6490,6890,7260,7180,7350,7170,7070,7160,6640,6880,6590,6550,6250,6190,5690,5960,5660,5390,5230,4950,4370,4260,3610,3580,3200,2950,2910,2440,2400,2070,2000,1510,1360,1180,1000,704,500,415,345,219,170,96.4,66.1,52.8,23.2,19.9,20.4,8.15
0.3889,250,869,1100,1220,1420,1370,2200,2560,2680,3030,2880,3280,3820,4570,4500,4970,5070,5820,6020,5510,6150,6610,6870,6780,7550,7370,7140,7060,7210,6890,7180,6640,7180,6550,6680,5930,5950,5760,5740,5300,5210,5100,5050,4420,4150,3940,3680,3360,2900,2720,2490,2180,1920,1850,1520,1400,1080,971,750,493,411,280,292,162,107,110,52.8,27.1,19.9,12.2,0
0.3924,500,752,797,1090,1540,2320,2170,2200,2580,3410,3260,3060,3800,4520,4200,4870,5160,4970,5780,5930,6240,6150,7090,6910,7080,6840,7190,7750,7070,7280,7420,6990,6710,6700,6490,6130,6250,6200,5240,5390,5490,4820,4460,4500,4110,3870,3520,3230,3110,2590,2460,2110,1940,1740,1530,1380,1190,940,763,555,384,303,221,161,104,58.6,56.6,23.2,11.9,16.3,8.15
0.3958,437,637,1400,1050,1460,1840,1920,1990,2750,3160,2780,3770,3770,3960,4570,4680,4740,5480,5580,5230,5800,6180,6580,6770,7040,6760,7040,7330,7510,6950,7010,6980,6930,6540,6370,6300,5850,5610,5620,5220,5070,5030,4740,4450,4140,3820,3770,3170,2840,2700,2370,2340,1850,1780,1670,1420,1190,1000,777,510,425,284,174,156,100,47.7,18.9,23.2,23.8,28.4,0
0.3993,374,752,997,1090,962,1470,1920,2150,2360,2590,3060,3330,3570,4520,4480,4660,4490,5300,5500,5800,6200,6300,6520,6510,7150,6790,7130,7160,7070,7130,7230,6890,6810,6280,5960,6140,5910,5620,5610,5350,5020,4690,4470,4420,3980,3660,3590,3280,2920,2490,2340,2060,2020,1760,1480,1480,1220,954,767,591,404,277,165,133,104,43.9,75.3,31,19.8,16.3,8.15
0.4028,63.1,405,997,830,1120,921,1770,2150,2600,2460,2970,3330,3980,3780,3700,4720,4570,5300,5260,5620,5760,6280,6570,6610,6620,6670,6750,7000,6750,6650,6850,6650,6660,6380,6010,5800,6010,5490,5380,5280,4770,4740,4490,4370,3880,3620,3470,3080,2850,2680,2090,2390,1910,1810,1630,1400,1210,875,835,618,393,271,214,145,71.4,58.6,41.5,34.8,7.88,12.2,8.15
0.4062,374,579,597,872,1390,1400,2010,2040,1670,2570,3040,3300,3170,3420,3970,4050,4540,5210,5420,5470,5280,5890,6210,6060,6450,6970,6660,6710,7180,6850,6370,6760,6540,6270,6000,5790,5620,5630,5070,5410,4960,4600,4580,4260,3870,3710,3540,2960,2740,2530,2430,2180,1910,1800,1580,1340,1180,954,657,490,333,268,177,98.1,121,40.4,45.1,31,31.8,8.06,16.5
0.4097,374,347,648,1050,1230,1090,1400,2020,2160,2440,2140,3060,3160,3420,3360,4330,4330,4750,5240,5530,5240,5590,6130,6210,6640,6580,6800,6690,6970,6360,6610,6500,6500,6080,6210,5930,5220,5260,5360,5210,4920,4840,4440,4140,3750,3550,3160,2970,2710,2490,2400,2120,1950,1670,1530,1340,1170,843,625,489,352,277,179,175,78.6,66.1,52.8,27.1,15.9,8.06,8.15
0.4132,63.1,520,349,480,1230,1060,1520,1910,1820,2010,2720,2990,3160,3010,3430,4020,4360,4660,4790,4970,5230,5540,5610,5960,6060,6370,6480,7180,7040,6670,6470,6340,6330,6250,6050,5900,5640,5350,5550,4760,4750,4610,4280,4300,3520,3690,3360,3080,2810,2320,2450,2070,1800,1680,1540,1390,1110,870,742,491,348,277,193,121,121,66.1,64.1,19.3,7.88,12.2,8.15
0.4167,250,1100,797,1050,924,1230,1400,1850,1740,1900,2260,2820,3260,2860,3560,3640,3650,4190,5040,4900,4920,5580,5540,6160,6120,5890,6400,6760,6600,6570,6900,6610,6280,5980,5840,5630,5610,5380,4830,4760,4520,4150,4130,4250,3930,3630,3370,3130,2610,2400,2230,2060,1820,1770,1670,1430,1040,923,727,567,372,246,183,147,71.4,66.1,52.8,42.6,23.8,16.3,0
0.4201,250,464,748,961,693,957,1500,1310,1620,1970,2060,2440,2450,3240,3510,3750,4220,4610,4360,4700,5030,5600,5420,5810,6110,6150,6230,6100,6520,6180,6850,6110,6230,5940,5670,5340,5130,5090,5040,4710,4770,4290,4370,4030,3700,3460,3260,3000,2540,2420,2250,1780,1870,1640,1570,1400,1090,1020,739,498,327,272,131,104,118,62.4,45.1,27.1,23.8,36.5,0
0.4236,63.1,637,399,655,1310,1090,1650,1690,1670,1700,2060,2800,2700,3130,3000,3430,3700,4280,4390,4260,4720,5380,5620,5570,5820,6350,6250,6110,5990,6390,6120,6300,6000,5660,5560,5420,5390,5130,4910,4650,4360,4440,4370,4070,3640,3540,3370,2680,2700,2280,2200,1800,1730,1700,1420,1370,1160,995,728,568,347,270,155,141,64.3,77,45.1,27.1,15.9,12.2,0
0.4271,187,347,349,961,1000,1260,1070,1520,1620,1900,2400,2600,2730,3120,2900,3670,3810,4130,4150,4830,4610,4860,5540,5630,5810,5900,6120,5860,6240,5990,5900,6180,5580,5740,5520,4960,5330,5100,4780,4630,4480,4760,4120,3690,3800,3350,3060,2760,2610,2420,2130,2060,1910,1630,1430,1330,1050,890,665,501,465,257,201,151,114,95.3,41.5,34.8,27.8,16.3,16.5
0.4306,0,290,549,480,846,990,1160,1280,1450,1620,1860,1950,2480,3010,2780,3280,3230,3780,4510,3980,5010,4510,4840,5310,5470,5580,5930,5970,6110,6250,6260,5700,5600,5760,5350,5140,5020,4940,4880,4430,4500,4270,4110,4060,3710,3530,3190,2820,2560,2230,2290,2100,1730,1570,1430,1340,1050,949,656,608,374,247,178,119,136,40.4,49,27.1,15.9,16.3,8.15
0.434,250,464,349,698,731,1090,793,1530,1500,1510,1920,2620,2310,2430,3470,2970,3290,3930,4130,4700,4730,4540,5080,5360,5370,5720,5810,6060,6120,5920,5990,5790,6190,5450,5210,5390,5040,5020,4670,4500,4320,4390,4060,3680,3250,3420,2870,2800,2290,2450,2320,1970,1920,1590,1480,1310,998,953,671,424,340,249,198,99.9,89.3,87.9,49,19.4,11.9,12.2,8.15
0.4375,63.1,405,448,436,654,888,702,1120,1620,1790,2320,2090,2640,2870,2750,3360,3370,3770,4230,4260,4280,4840,5070,5550,5510,5440,5540,5780,5830,5760,5780,5960,5590,5310,5220,4990,4920,4790,4400,4410,4130,4340,4050,3680,3570,3140,3000,2620,2570,2350,2020,2090,1700,1610,1530,1230,1150,767,701,420,392,259,199,112,121,66.1,30.2,7.68,11.9,8.06,8.15
0.441,124,347,349,567,424,957,1160,1170,1450,1770,1940,2260,2580,2560,3040,3070,3410,3300,4030,4140,4480,4600,5200,5150,5010,5690,5770,5930,5900,5700,5520,5450,5470,4920,5060,4980,4740,4570,4500,4420,4150,3860,3550,3710,3310,3130,2950,2880,2590,2400,2090,2070,1890,1490,1260,1240,981,887,580,454,378,243,200,149,104,58.6,33.9,19.4,7.88,28.4,16.5
0.4444,63.1,464,597,655,385,614,946,1390,1670,1700,1900,2040,2380,2420,2600,3270,3370,3190,3830,4320,4470,4380,4740,4820,5260,5240,5240,5530,5700,5490,5560,5230,5540,5280,4930,4820,4490,4520,4210,4140,4100,3860,3820,3660,3500,3350,2910,2740,2390,2240,2130,1810,1710,1560,1440,1230,1030,880,724,409,350,242,180,107,60.7,88,56.4,11.6,19.8,12.2,8.15
0.4479,63.1,464,498,784,500,1130,1040,1520,1470,1840,1800,1930,1780,2220,2830,2850,3170,3620,3790,3730,4010,4790,4670,4960,5080,4930,5560,5500,5520,5480,5280,5240,5260,5000,5130,4460,4720,4820,4660,4480,4250,4000,3760,3370,3250,2960,3020,2580,2530,2220,2120,1870,1720,1520,1490,1180,1030,1040,680,542,328,254,189,99.9,82.1,80.6,49,15.5,15.9,12.2,8.15
0.4514,63.1,232,250,611,385,785,702,844,1150,1640,1820,1800,2200,2470,2520,2930,3070,3430,3980,4040,4010,4250,4710,4770,4760,5300,5270,5720,5460,5320,5500,5390,4950,5270,5050,4540,4440,4760,4420,4060,3890,3780,3620,3400,3250,3160,2760,2460,2450,2260,1860,1820,1660,1580,1320,1160,989,855,641,419,345,296,170,107,78.6,36.7,45.3,19.4,27.8,20.4,8.15
0.4549,187,347,648,436,924,648,672,1120,1010,1550,1500,2020,2030,2600,2530,2840,3090,3620,3650,4120,4010,4570,4580,4730,5180,4780,4990,5290,5290,5340,5290,5170,4970,4890,4910,4520,4430,4430,3970,3850,3990,3700,3680,3380,3170,3010,2990,2470,2440,2130,2000,1660,1660,1710,1250,1190,994,792,696,495,364,271,179,110,96.4,51.4,15.1,27.1,11.9,20.4,0
0.4583,187,405,698,611,539,991,1070,1140,1230,1730,1640,1860,2220,2250,2490,2660,2990,3040,3120,3600,4350,4110,4340,4460,4530,4460,5170,4990,5230,5140,5230,5340,4980,4690,4540,4090,4550,4310,4080,4120,4000,3730,3560,3140,3110,3050,2650,2570,2310,2080,1850,1790,1760,1620,1380,1360,1140,673,668,510,358,208,160,164,82.1,62.4,49,42.6,31.8,8.06,16.5
0.4618,187,405,448,786,731,683,792,1040,1250,1590,1500,1640,1820,2450,2270,2410,2990,2800,3300,3670,4040,3680,4030,4290,4640,4940,4910,5050,4730,5320,4980,4720,4720,4290,4160,4290,4280,4420,3950,3660,4100,3600,3470,3090,3220,2850,2900,2340,2500,2020,1770,1730,1580,1480,1210,1170,1070,860,558,428,317,284,181,131,89.2,47.7,33.9,11.6,7.88,4.11,0
0.4653,63.1,464,399,655,770,922,976,1360,1400,1620,1420,1690,1920,1920,2570,2560,2630,2980,3100,3530,3590,3740,4130,4210,4640,4590,4820,4820,4720,4810,4610,4420,4900,4360,4340,4480,4170,3980,3820,4030,3520,3250,3370,3110,3010,2980,2750,2430,2170,2200,1850,1680,1690,1500,1270,1060,998,886,587,443,401,245,140,75.7,78.5,44.1,41.5,27.1,23.8,12.2,24.6
0.4687,124,115,448,436,616,650,886,1200,1200,1530,1520,1380,1700,2130,2250,2550,2570,2820,3170,3510,3500,3870,3900,4050,4390,4460,4790,4460,4790,4930,4610,4300,4440,4350,4330,4250,3980,4020,4070,3620,3530,3490,3100,3360,2950,2870,2390,2490,2230,2030,1700,1770,1550,1400,1270,1190,1100,794,601,485,356,210,141,98.3,75,47.7,22.6,31,23.8,8.06,24.6
0.4722,124,232,498,219,578,717,977,900,1110,1420,1680,1780,1770,2090,1700,2410,2530,2810,3060,3280,3190,3830,3910,4100,4140,4350,4590,4750,4460,4500,4610,4570,4470,4620,4270,4140,4130,3890,4000,3580,3410,3240,3080,3050,2960,2800,2670,2290,2150,1970,1830,1800,1620,1450,1320,1120,994,874,598,393,324,224,189,98.3,53.6,55.1,37.7,19.4,19.9,16.3,16.5
0.4757,187,173,498,611,693,1090,855,900,1470,1280,1540,1560,1830,2250,2420,2230,2390,2650,2860,3140,3300,3400,3670,4000,4140,4570,4200,4270,4590,4580,4280,4290,4350,4080,4110,3880,3700,3620,3830,3580,3290,3420,3110,2920,2740,2660,2550,2430,1990,1940,1850,1720,1690,1370,1400,1270,1030,704,529,424,286,278,116,136,111,58.6,26.4,11.6,19.8,8.06,16.5
0.4792,187,405,698,480,770,818,855,1390,1370,1730,1720,1660,1770,1750,2280,2140,2090,2650,2910,3310,3190,3670,3530,3600,4280,4130,4260,4790,4140,4770,4690,4170,4230,4150,3900,4080,3580,3560,3580,3370,3460,3290,3150,2850,2740,2640,2300,2250,1970,1850,1800,1720,1600,1470,1350,1140,1020,838,565,432,339,200,121,67.4,67.8,69.8,30.2,27.1,19.9,16.3,41
0.4826,63.1,347,549,392,885,717,1100,1040,1060,1350,1400,1490,2130,1830,2030,2150,2320,2580,2690,3260,3280,3810,3620,4090,4010,3890,4150,4050,4240,4400,4280,4540,4340,3900,3890,3800,3710,3670,3430,3320,3100,3160,3150,2830,2840,2460,2360,2130,1940,1800,1800,1620,1450,1410,1360,1200,901,693,640,450,309,186,152,105,60.7,55.1,33.9,19.4,27.8,8.06,8.15
0.4861,250,405,498,567,577,717,1010,1140,1060,1370,1220,1890,1400,2160,1800,2360,2500,2430,2840,2960,3490,3370,3360,3660,3930,3920,4020,4360,4110,4110,4070,4120,4240,3790,3990,3710,3740,3720,3590,3470,3160,2960,2890,2870,2720,2370,2390,2050,1970,1890,1670,1680,1440,1380,1290,1050,968,784,532,456,337,238,168,112,96.4,51.4,33.9,27.1,11.9,8.06,8.15
0.4896,250,290,597,567,578,546,1040,762,982,1400,1260,1510,1470,1510,1960,1930,2310,2390,2610,2800,3070,3190,3430,3540,3630,4250,3790,3930,4260,4130,4200,4100,3760,3890,3610,3670,3690,3550,3390,3140,3310,3230,2940,2800,2590,2470,2460,2070,1910,1790,1670,1640,1570,1270,1340,1080,982,742,660,440,316,199,152,115,53.6,51.4,45.1,34.8,15.9,8.06,0
0.4931,63.1,173,549,698,770,615,915,1120,1130,1480,1640,1310,1920,1410,2070,1950,2400,2550,2270,2760,2890,3100,3290,3420,3620,3710,3860,3950,3930,4160,3910,4050,4060,3860,3760,3680,3540,3630,3300,3090,3480,3100,2870,2780,2380,2720,2110,2100,1970,1820,1700,1680,1510,1400,1260,1100,920,735,584,366,315,127,161,140,96.4,62.4,56.6,23.2,27.8,16.3,24.6
0.4965,250,173,547,523,578,752,946,871,1030,1150,1440,1640,1620,1800,1710,1700,2260,2210,2900,2730,2880,3210,3040,3620,3470,3790,3790,4010,4100,3750,4020,3910,3930,3770,3470,3670,3440,3600,3270,3170,3200,3050,2590,2730,2450,2380,2120,1960,1810,1790,1820,1550,1510,1380,1370,1190,848,645,580,383,285,186,135,119,57.1,77,22.6,27.1,4.01,8.06,16.5
0.5,187,579,498,523,963,820,824,926,1150,1040,1180,1350,1500,1910,1850,1990,2190,2340,2460,2900,2910,3160,3150,3120,3650,3520,3800,3980,4150,3810,3820,3930,3560,3580,3770,3570,3410,3320,3170,3120,3000,2710,2750,2650,2340,2230,2110,1920,1890,1650,1550,1520,1390,1330,1220,1070,873,805,604,425,257,211,136,87.3,75,58.6,33.9,19.3,19.9,8.06,0
0.5035,250,347,448,480,500,751,975,872,1280,1280,1280,1660,1600,1920,2010,1900,2130,2320,2460,2590,2720,3030,3300,3250,3420,3690,3540,3660,3620,3840,3720,3420,3560,3680,3110,3520,3290,3200,3020,2720,3010,2590,2570,2570,2430,2270,2100,1920,1790,1820,1760,1580,1390,1290,1230,985,819,736,569,339,263,248,176,89.3,64.2,62.4,33.9,23.2,7.88,12.2,8.15
0.5069,560,173,597,523,616,683,793,926,885,1460,1100,1290,1340,1480,1520,1770,1950,2130,2460,2480,2820,3220,3070,3300,3410,3240,3570,3550,3960,3690,3560,3710,3360,3420,3310,3150,3150,3160,3240,2830,2920,2870,2700,2520,2450,2350,2200,1930,1750,1730,1430,1490,1390,1210,1240,969,986,710,509,421,380,166,150,74,96.4,51.4,22.6,42.6,11.9,16.3,16.5
0.5104,124,579,648,698,616,683,884,1090,1100,841,1180,1160,1260,1530,2120,1980,2190,2360,2250,2340,2540,2880,2840,2930,3220,3180,3580,3400,3330,3680,3310,3690,3520,3450,3060,3360,3120,3110,3110,2890,2820,2850,2570,2460,2270,2340,2040,1960,1650,1650,1570,1360,1170,1190,1210,1090,914,697,613,401,263,220,141,91.6,32.1,58.6,33.9,23.2,11.9,24.3,8.15
0.5139,187,347,349,523,731,751,1010,681,1150,1110,1440,1310,1290,1450,1300,1700,1840,2200,2060,2630,2600,2540,3150,2740,3240,3060,3350,3310,3350,3540,3170,3450,3330,3510,3090,3340,3150,3100,3090,2860,2840,2580,2310,2470,2190,2040,1910,1880,1820,1670,1640,1520,1360,1320,1100,1070,799,662,524,401,302,191,140,114,46.4,36.7,18.8,15.5,11.9,28.4,0
0.5174,250,464,797,611,1080,614,946,1200,1100,1150,1080,1440,1520,1330,1720,1580,1740,1850,2130,2640,2710,2560,3010,3090,3100,3240,3370,3300,3620,3310,3310,3060,3340,3180,3130,3150,2950,2990,2840,2860,2830,2590,2430,2490,2350,2180,1710,1790,1880,1770,1430,1340,1400,1320,1140,1030,885,814,517,318,292,217,169,104,60.7,43.9,30.2,19.3,7.88,0,0
0.5208,187,288,797,786,963,888,977,817,1130,1110,1240,1290,1140,1300,1660,2120,1770,2120,2150,2530,2280,2660,2910,2910,3210,3050,3320,3070,2990,3300,3360,3280,3210,3040,3210,3160,2910,2990,2890,2810,2840,2460,2310,2360,2270,1850,1970,1850,1740,1540,1450,1410,1440,1300,1190,1050,962,668,482,370,192,182,114,107,67.8,51.4,52.8,31,15.9,12.2,24.6
0.5243,187,464,349,480,963,922,793,1090,1570,1110,1320,1200,1120,1340,1630,1470,1830,2030,2110,2100,2460,2530,2610,2710,2840,2940,3050,3220,3130,3380,2990,3180,3230,3220,3090,3050,3100,2820,2670,2750,2220,2390,2180,2340,2290,2060,1940,1890,1740,1500,1500,1310,1400,1210,1030,1020,889,754,398,367,247,210,108,114,89.3,33,49,11.6,11.9,20.4,0
0.5278,250,520,448,480,770,717,519,954,1380,1330,1460,1130,1320,1440,1590,1640,1590,1900,1870,1850,2320,2630,2660,2810,2600,2660,2890,3010,3160,2950,3060,3270,3050,3280,3080,2860,2820,2800,2810,3130,2440,2380,2310,2090,2050,1880,2060,1640,1580,1510,1540,1390,1240,1300,1120,1050,846,745,545,396,267,238,150,77.4,64.3,66.1,30.2,11.6,4.01,16.3,8.15
0.5312,250,405,299,436,424,581,1010,954,810,1040,1200,1130,1220,1150,1450,1930,1800,1860,1900,2040,2260,2390,2560,2550,2700,3120,2820,3100,3180,3010,3180,3090,2980,3010,2950,2710,2690,2860,2520,2760,2430,2270,2320,2160,2050,1960,1930,1830,1760,1620,1500,1330,1280,1240,1140,1090,833,662,476,348,255,187,175,84.4,67.8,43.9,45.3,31,23.8,8.06,24.6
0.5347,63.1,288,498,480,385,648,824,1200,910,1220,1520,1110,1210,1410,1550,1580,1500,1660,1690,2030,2040,2260,2450,2580,2810,2820,2900,2670,2860,2850,2950,3120,3000,3090,2720,2920,2690,2780,2570,2680,2410,2470,2130,1970,1930,1950,1890,1770,1580,1410,1520,1310,1140,1300,1150,1050,892,581,539,437,232,178,119,90.7,57.1,47.7,30.2,23.2,23.8,0,16.5
0.5382,437,290,599,611,809,889,1040,1010,908,1060,1300,1310,892,1320,1330,1320,1380,1760,1950,1940,1780,2350,2410,2360,2500,2660,2740,2780,2850,2770,3010,3000,2950,2740,2720,2850,2780,2610,2630,2520,2550,2310,2260,2190,1880,1940,1720,1510,1500,1430,1420,1340,1270,1300,1230,1040,877,675,478,318,246,138,78,78.4,64.3,51.4,22.6,27.1,27.8,4.11,0
0.5417,187,464,448,611,731,751,824,626,885,1130,1080,1060,1070,1190,1430,1330,1590,1370,1680,1750,2260,2200,2250,2380,2630,2550,2690,2740,2810,2710,2920,2960,3210,2830,2710,2770,2570,2530,2410,2370,2390,2270,1950,2220,1960,1650,1640,1590,1630,1400,1420,1400,1260,1330,1110,1100,929,616,423,341,250,168,144,94.4,75,44.1,15.1,11.6,23.8,8.06,0
0.5451,124,232,349,786,539,512,824,926,1200,841,942,1240,975,1100,1520,1470,1720,1450,1830,1970,1800,2070,2060,2180,2560,2330,2380,2540,2770,2680,2780,2690,2820,2490,2400,2680,2590,2390,2450,2560,2460,2060,2180,1960,1840,1770,1510,1800,1440,1530,1450,1350,1320,1190,1050,966,756,609,517,303,299,195,142,90.9,53.5,58.6,41.5,34.8,4.01,8.06,8.15
0.5486,437,232,399,655,654,785,763,1140,1030,863,1120,1000,1370,1100,1270,1280,1210,1700,1710,1740,1800,1920,2120,2260,2460,2460,2390,2470,2550,2570,2640,2620,2750,2750,2740,2660,2600,2550,2580,2260,2330,1870,2120,1970,1790,1680,1580,1700,1520,1410,1520,1330,1270,1130,970,981,740,688,465,372,213,210,124,105,57.1,40.4,33.9,11.6,11.9,8.06,16.5
0.5521,437,637,549,523,731,512,732,1040,983,1190,841,1240,1140,1320,1290,1550,1420,1550,1580,1870,1630,1830,1830,2350,2350,2090,2500,2480,2670,2560,2870,2660,2830,2470,2630,2630,2580,2400,2480,2000,2200,2120,2030,2070,1880,1880,1750,1620,1510,1460,1170,1340,1160,1130,1080,954,777,581,495,309,192,162,127,87.3,35.7,40.4,30.2,15.5,11.9,8.06,0
0.5556,0,464,448,523,578,581,915,1090,957,1020,1440,1060,1160,891,1060,1030,1270,1380,1800,1830,1680,1820,1870,2180,2290,2380,2540,2620,2560,2510,2570,2580,2480,2480,2660,2390,2310,2240,2240,2330,2270,2040,2020,1670,2010,1850,1650,1600,1380,1530,1290,1220,1250,1230,1070,858,709,683,472,325,248,117,107,87.3,53.6,43.9,49,7.68,23.8,8.06,0
0.559,250,290,349,524,654,853,946,844,785,975,741,965,1220,1070,1190,1250,1150,1480,1440,1730,1660,2050,1810,1980,2300,2480,2340,2510,2300,2720,2430,2260,2610,2500,2410,2510,2440,2430,2350,2170,2130,2140,1960,1950,1810,1620,1650,1530,1570,1390,1340,1370,1340,1240,948,984,761,633,285,319,259,154,103,82,289,110,52.8,19.4,7.88,4.11,0
0.5625,250,173,498,523,924,785,824,1090,786,819,1180,947,1020,1170,1130,1340,1270,1380,1570,1680,1590,1950,1820,1980,1930,2150,2300,2080,2540,2310,2370,2320,2290,2510,2650,2400,2240,2100,2100,2170,1990,1940,1800,1710,1890,1680,1520,1600,1470,1490,1330,1220,1280,1070,1030,795,806,613,409,372,279,163,110,87.7,39.3,51.4,18.9,19.3,11.9,8.06,16.5
0.566,124,464,399,742,461,752,763,572,1110,952,1020,965,910,1030,952,1280,1160,1400,1190,1550,1690,1680,1600,1940,1760,2050,2230,2080,2220,2370,2400,2390,2240,2530,2530,2450,2270,2180,2150,2200,2060,2030,1830,1760,1770,1690,1650,1620,1410,1360,1180,1250,1180,1060,898,944,787,653,436,405,274,160,102,68,67.8,43.9,26.4,23.2,15.9,4.11,0
0.5694,313,637,448,567,424,717,581,654,835,930,1040,1000,975,1090,843,1190,1170,1330,1330,1360,1500,1650,1420,1760,1800,1970,2270,2050,2370,2250,2070,2290,2430,2300,2220,2210,2330,2080,2080,1820,1790,1930,1920,1710,1750,1640,1590,1390,1440,1450,1270,1350,1190,1160,930,823,775,514,417,287,241,171,96.2,73.2,57.1,33,37.7,7.68,4.01,0,8.15
0.5729,63.1,520,299,523,578,957,793,572,910,908,862,911,877,1010,663,1000,1220,1120,1380,1330,1280,1590,1730,1900,1730,1760,2000,2100,2200,2190,2250,2150,2330,2210,2490,1960,2240,2330,2230,2100,1870,2130,1950,1580,1690,1650,1550,1360,1320,1280,1350,1140,1120,1180,1080,938,791,613,442,292,185,159,93.3,49.3,42.9,33,22.6,7.68,11.9,8.06,16.5
0.5764,63.1,405,349,655,809,751,763,1330,565,974,760,601,926,817,815,1140,1160,1300,1080,1210,1350,1650,1510,1650,1780,2010,2040,2220,2250,2240,2330,2280,2130,2200,2230,1990,2010,2270,2030,1980,2040,1850,1950,1620,1660,1470,1370,1410,1400,1420,1210,1170,1100,1050,908,906,763,605,455,325,280,166,104,83.9,25,51.4,15.1,7.68,11.9,8.06,0
0.5799,374,520,248,523,654,581,793,654,835,841,781,710,727,937,816,1000,1080,1120,1290,1320,1480,1410,1560,1920,1760,1670,1800,2160,2110,2240,2160,2140,2260,1990,2230,1950,2150,2080,2010,2000,1990,1850,1920,1950,1780,1780,1410,1150,1270,1250,1300,1160,1020,1080,978,940,752,618,439,338,209,162,92.9,85.5,39.3,36.7,30.2,23.2,19.8,4.11,0
0.5833,187,579,399,436,693,579,550,790,712,709,881,929,826,1010,996,951,922,954,1190,1450,1290,1430,1480,1540,1770,1910,1850,1670,1810,1950,2310,2140,2040,2090,2130,2160,2200,1930,2040,1920,1940,1750,1860,1640,1730,1410,1300,1420,1210,1250,1200,1310,1140,1110,1050,942,738,543,374,278,221,137,97.7,45.6,46.4,36.7,18.9,15.5,15.9,8.06,0
0.5868,311,520,349,786,654,546,458,626,957,730,981,838,993,650,1010,683,909,1170,1330,1130,1440,1580,1500,1570,1720,2010,1710,1770,2030,1970,2020,2320,2020,2250,2040,1950,1860,1930,2000,1920,1870,1850,1720,1680,1440,1630,1200,1300,1290,1260,1280,1140,1230,1120,1000,922,708,620,390,260,202,159,102,59.5,67.9,47.7,33.9,15.5,7.88,8.06,0
0.5903,124,405,698,305,539,785,731,817,933,753,921,856,760,1040,913,772,979,855,1040,1140,1390,1380,1620,1630,1700,1720,1850,1830,2000,2090,2070,2220,2140,1980,2050,1920,1990,1890,1770,1890,1740,1650,1790,1620,1470,1400,1360,1390,1300,1180,1180,1290,1060,1000,941,867,820,592,431,260,211,136,130,59.4,35.7,36.7,15.1,11.6,15.9,0,8.15
0.5937,250,347,597,653,578,444,488,790,810,930,842,1040,695,817,803,798,1050,932,1150,1110,1210,1380,1380,1620,1550,1730,1870,1900,1890,1970,1970,2010,2020,2090,2140,1870,1970,1950,1880,1740,1710,1710,1500,1550,1540,1620,1430,1350,1400,1280,1150,1050,1220,896,800,863,716,568,404,318,204,169,70.6,62.9,53.6,40.4,33.9,23.2,15.9,8.06,0
0.5972,124,405,448,219,616,820,550,626,884,797,921,893,810,756,858,887,1060,1020,1110,1020,1100,1450,1550,1580,1880,1640,1660,1690,1850,1800,2020,2050,2010,2020,2000,1910,1810,1980,1980,2000,1670,1650,1640,1530,1430,1430,1300,1330,1170,1150,1150,1050,1160,981,949,868,773,527,405,260,204,132,55.7,89.6,53.5,55.1,26.4,27.1,7.88,20.2,0
0.6007,311,115,349,350,770,409,945,872,761,973,861,855,628,1010,719,544,851,1030,982,1180,1330,1110,1440,1340,1330,1780,1790,1730,1820,2080,1920,1970,1950,2080,1940,1680,1760,1860,1800,1810,1610,1930,1480,1360,1510,1240,1270,1180,1170,1160,1150,1070,1130,1040,978,873,694,548,407,269,170,127,107,68.4,35.7,25.7,22.6,15.5,4.01,12.2,0
0.6042,374,520,549,305,424,785,732,763,1010,708,722,746,695,923,664,1170,827,1040,1100,1160,1080,1160,1360,1660,1600,1720,1510,1740,1830,1770,1850,1890,1990,1740,1770,1910,1840,1870,1700,1730,1620,1480,1360,1540,1300,1350,1190,1220,1160,1090,1120,1170,1060,1030,887,825,627,558,386,252,221,177,103,42.1,42.8,40.4,67.9,3.91,4.01,0,16.5
0.6076,124,290,399,828,463,683,702,954,688,797,921,710,976,893,1050,1040,980,954,930,1100,1130,1190,1280,1420,1670,1470,1740,1740,1840,1860,1910,1780,1820,1670,1830,1830,1800,1800,1690,1730,1760,1640,1560,1380,1370,1320,1150,1200,1230,1140,1050,1060,1180,1040,877,767,746,561,334,255,190,136,99.7,47,32.1,18.4,33.9,11.6,19.9,4.11,0
0.6111,313,232,399,392,500,717,794,708,834,863,1060,655,777,741,1060,786,793,977,1140,996,1190,1170,1310,1190,1540,1710,1550,1690,1750,1800,1720,1850,1860,1960,1930,1730,1860,1890,1960,1690,1510,1600,1470,1360,1330,1340,1290,1300,1130,1260,1100,1160,1030,1050,952,797,610,482,420,251,197,90.1,120,57.6,25,14.7,15.1,15.5,19.9,4.11,0
0.6146,63.1,173,847,392,770,650,610,899,810,929,901,910,694,848,775,710,664,814,1210,952,1020,1240,1060,1270,1420,1540,1470,1650,1660,1840,1770,1920,1920,1660,1970,1860,1720,1640,1570,1720,1600,1440,1570,1390,1400,1280,1260,1150,1150,1030,1070,1080,961,902,980,870,666,525,405,251,174,126,81.8,68.4,46.4,36.7,22.6,27.1,4.01,4.11,24.6
0.6181,124,694,648,392,500,478,823,654,860,686,761,893,1040,817,969,888,876,946,1030,1090,1140,1300,1130,1110,1310,1530,1450,1440,1690,1890,1640,1830,1820,1740,1760,1870,1830,1550,1580,1680,1420,1420,1430,1360,1440,1270,1300,1150,1170,1010,1030,1040,1040,994,918,874,603,492,369,303,189,128,79.6,96,50,25.7,18.9,11.6,7.88,4.11,8.15
0.6215,187,464,448,219,654,717,1310,545,1150,952,681,892,943,862,747,620,829,891,893,1110,1110,1060,1170,1170,1270,1440,1550,1560,1530,1750,1700,1820,1600,1650,1730,1900,1580,1510,1660,1450,1480,1550,1210,1420,1250,1300,1160,1110,1170,1120,1020,1120,976,904,979,771,577,440,371,277,204,125,73.8,82,57.1,33,30.2,15.5,11.9,4.11,0
0.625,311,520,597,480,578,307,671,872,614,929,841,1000,728,923,663,1040,900,934,1000,961,1020,1250,1010,1380,1270,1360,1480,1580,1590,1760,1690,1750,1710,1590,1850,1510,1680,1770,1460,1630,1570,1300,1260,1300,1250,1270,1050,1090,1130,1120,1020,1020,1080,917,865,839,610,454,349,219,181,136,113,73.4,42.9,22,18.8,3.91,7.88,8.06,0
0.6285,250,579,399,611,692,957,855,872,909,863,1200,910,644,757,900,863,864,869,913,775,1010,1090,1140,1180,1270,1430,1480,1530,1470,1630,1580,1540,1630,1690,1690,1760,1550,1600,1600,1630,1320,1370,1440,1380,1120,1180,1140,1060,1010,896,1020,945,1010,962,898,805,595,586,428,278,153,120,102,54.6,46.4,25.7,22.6,19.4,7.88,12.2,8.15
0.6319,63.1,405,399,828,732,546,610,899,1010,819,1180,1020,877,741,733,786,723,805,681,943,868,1230,1250,1160,1240,1460,1510,1510,1530,1660,1840,1580,1750,1620,1610,1630,1550,1520,1510,1520,1270,1210,1390,1390,1230,1260,1130,1290,1000,1040,956,1160,911,894,946,798,742,438,335,231,168,114,112,61.3,35.7,40.4,18.9,19.3,4.01,4.11,16.5
0.6354,124,520,299,786,770,546,824,653,565,863,782,528,894,998,636,850,582,934,792,1000,1100,1120,955,1230,1230,1360,1350,1620,1500,1610,1670,1680,1670,1620,1460,1760,1680,1540,1490,1600,1390,1410,1250,1250,1250,1190,1040,1170,956,1040,1150,1010,955,900,816,763,643,477,355,251,214,115,83.2,56.2,67.8,22,18.8,15.5,11.9,8.06,8.15
0.6389,250,405,399,611,731,683,641,409,933,775,801,801,712,772,720,698,865,708,853,878,923,940,951,1050,1180,1450,1360,1480,1420,1440,1460,1560,1530,1540,1510,1590,1520,1520,1500,1470,1530,1480,1240,1190,1270,1220,1180,1050,1070,1020,998,965,978,886,886,701,676,452,281,248,138,132,58.3,77.1,35.7,44.1,7.48,38.7,7.88,8.06,16.5
0.6424,437,520,498,567,461,785,732,844,909,929,1000,874,827,772,942,838,665,782,781,814,1000,1100,1110,1200,1410,1270,1420,1360,1580,1600,1520,1550,1610,1660,1760,1540,1670,1590,1500,1420,1300,1270,1280,1220,1140,1270,1050,1080,1060,1040,1080,1120,942,854,772,708,591,510,276,244,198,125,99.6,31.3,53.6,51.4,26.4,11.6,4.01,0,0
0.6458,250,405,547,524,692,820,824,463,810,686,761,655,678,726,678,748,734,795,986,860,931,1030,1120,1030,1050,1310,1440,1370,1500,1360,1520,1590,1530,1670,1570,1600,1550,1550,1490,1260,1340,1240,1180,1130,1140,1000,1150,1000,1020,1090,1110,1120,919,872,762,721,583,447,358,241,200,115,119,82,32.1,29.4,30.2,23.2,4.01,4.11,8.15
0.6493,374,405,448,175,424,957,579,790,810,819,1020,838,794,651,748,660,793,577,772,833,863,796,1160,982,1280,1270,1260,1400,1410,1350,1530,1360,1410,1680,1640,1560,1620,1480,1610,1410,1310,1320,1070,1170,1090,1170,1060,974,1190,1150,1080,968,953,748,793,650,583,466,374,270,208,145,93.7,71.8,42.9,18.4,18.8,11.6,4.01,12.2,0
0.6528,374,347,299,524,654,820,550,681,638,686,761,783,745,605,803,672,829,729,774,834,952,823,1020,1150,1100,1130,1280,1230,1360,1420,1330,1650,1570,1580,1540,1530,1400,1570,1320,1310,1370,1260,1310,1220,1210,1030,1040,910,979,1130,1060,905,852,918,817,814,537,508,341,229,183,111,105,66.5,39.3,44.1,7.48,11.6,11.9,0,16.5
0.6562,124,173,250,523,307,615,732,817,1030,907,1100,674,927,726,817,748,676,816,784,983,970,845,1190,1060,1110,1240,1190,1320,1540,1150,1430,1330,1600,1600,1640,1540,1410,1580,1510,1320,1390,1200,1130,1240,1080,1190,1020,1020,959,976,893,928,988,869,874,718,588,499,342,224,161,109,77,75.3,28.6,22,15.1,15.5,23.8,4.11,16.5
0.6597,187,290,349,567,654,752,641,572,541,863,1040,820,695,711,789,723,734,837,884,647,759,1060,1090,1110,1150,1140,1280,1400,1320,1350,1560,1450,1660,1500,1550,1520,1530,1480,1460,1380,1430,1300,1270,1160,1080,1080,996,1060,1050,1020,988,981,1060,868,821,673,564,464,307,204,151,140,88.7,45.6,46.4,33,30.2,3.91,19.9,8.06,0
0.6632,124,288,448,392,654,650,427,816,712,1020,621,801,629,984,664,812,653,611,653,936,777,978,917,918,1100,1180,1290,1190,1300,1330,1520,1430,1530,1430,1540,1670,1570,1490,1220,1250,1220,1240,1240,1200,1130,1120,1100,939,866,979,885,919,899,859,904,669,567,483,334,278,109,133,113,38.3,60.7,29.4,26.4,0,15.9,0,0
0.6667,250,290,398,523,346,513,579,899,688,997,861,874,761,818,692,888,677,697,713,900,753,951,1050,962,1190,1160,1050,1390,1280,1380,1310,1420,1480,1430,1570,1320,1470,1340,1330,1490,1410,1290,1280,1200,1170,1040,861,1160,906,845,916,1010,1070,792,830,683,524,436,291,227,163,141,45.5,42.1,39.3,29.4,18.8,11.6,23.8,8.06,0
0.6701,187,694,698,567,1000,546,854,626,834,818,520,837,1010,817,775,774,677,893,744,966,944,831,906,915,1070,1130,1150,1210,1400,1470,1520,1620,1490,1380,1580,1610,1460,1470,1400,1380,1280,1190,1270,1160,1080,1090,1040,1120,1050,905,1040,913,952,764,703,684,570,525,355,273,132,85.3,96.8,56.2,46.4,18.4,33.9,7.68,0,8.06,8.15
0.6736,437,579,549,567,616,546,946,626,786,952,941,929,777,772,651,761,677,871,744,694,714,960,963,920,1130,1110,1400,1310,1290,1290,1460,1360,1450,1530,1540,1550,1450,1420,1380,1350,1130,1350,1190,1260,1100,897,1020,899,1020,999,1000,979,868,769,845,659,494,489,315,266,130,88.4,85.7,54.4,57.1,33,30.2,15.5,11.9,12.2,0
0.6771,374,464,498,480,539,615,823,599,713,841,781,929,910,726,831,800,759,785,674,733,778,791,1060,907,1060,974,1220,1260,1220,1250,1350,1530,1560,1520,1570,1410,1470,1340,1370,1270,1200,1270,1050,1060,1060,1080,1070,1010,979,1040,944,1040,1010,809,855,789,621,400,305,271,157,88.1,39.6,38.5,50,14.7,7.48,23.2,7.88,0,16.5
0.6806,560,288,498,742,809,1020,884,572,958,841,901,947,629,893,678,812,641,632,673,881,657,1050,884,959,1080,1260,1140,1310,1360,1390,1510,1410,1550,1660,1320,1400,1630,1460,1540,1390,1270,1290,1010,1040,1070,1060,1010,873,1110,999,1030,918,786,1000,686,732,572,437,334,270,133,112,71.9,49.1,53.6,29.4,15.1,27.1,7.88,8.06,0
0.684,313,464,448,392,809,752,854,871,638,1060,862,692,827,848,873,813,818,806,794,683,761,820,861,963,986,1380,1130,1370,1450,1310,1280,1500,1480,1550,1500,1550,1460,1270,1300,1180,1330,1140,1170,1150,1050,988,1020,1070,999,1020,940,922,912,813,812,766,513,409,330,253,169,88.6,68.9,76.7,32.1,25.7,18.9,31,15.9,0,0
0.6875,374,579,299,524,1080,751,702,626,885,908,781,947,844,696,706,775,912,785,775,883,763,804,948,928,970,1060,978,1460,1270,1310,1350,1560,1490,1580,1610,1520,1460,1470,1310,1340,1220,1260,1030,1050,1050,1040,1050,954,1030,963,976,796,892,790,726,710,557,404,349,204,161,137,38.3,59.2,28.6,11,18.8,3.91,15.9,0,0
0.691,560,694,597,436,654,376,762,708,982,953,722,964,810,893,762,914,829,860,835,946,813,838,1000,949,949,1200,1250,1250,1440,1280,1450,1350,1490,1430,1530,1460,1760,1540,1470,1530,1400,1160,987,1160,1160,988,820,889,976,892,833,930,941,978,741,760,615,401,313,216,165,112,61.9,47.7,35.7,18.3,18.9,15.5,11.9,12.2,16.5
0.6944,374,926,399,698,809,1060,824,871,885,1110,922,984,1040,757,886,902,771,666,693,647,848,973,942,822,1100,1240,1230,1080,1190,1290,1320,1350,1460,1580,1490,1450,1280,1450,1360,1080,1270,1240,1170,1160,1080,1210,890,998,1040,863,888,854,786,820,838,668,653,451,304,277,167,87.6,79.3,49.3,21.4,29.4,11.3,31,4.01,16.3,0
0.6979,313,694,698,653,616,1020,946,899,885,1060,900,728,960,893,803,736,830,698,774,806,760,815,903,948,1030,1150,1310,1270,1230,1320,1440,1390,1360,1490,1350,1480,1450,1350,1250,1290,1300,1170,1110,1170,1130,1170,1010,940,995,989,827,857,971,796,770,655,622,458,289,237,155,114,65.5,39.1,35.7,22,18.9,15.5,15.9,16.3,8.15
0.7014,560,984,698,611,500,683,1040,899,810,929,781,601,1030,833,873,965,842,795,794,790,695,889,968,1010,1020,1020,978,1120,1400,1280,1380,1440,1340,1350,1290,1440,1440,1390,1350,1370,1210,1370,1160,999,1050,1060,1000,908,928,1010,913,822,852,875,793,709,656,482,319,208,134,113,61,59.2,17.9,25.7,18.9,7.68,11.9,0,0
0.7049,810,694,797,436,693,820,1280,1120,1030,996,981,801,810,1110,956,903,536,699,793,854,850,777,933,813,1130,1140,1120,1080,1290,1330,1350,1340,1440,1470,1410,1350,1450,1350,1290,1200,1120,1090,1200,1140,995,1060,1060,917,923,897,904,901,800,809,774,608,568,463,327,212,164,117,108,85.4,60.7,22,22.6,27.1,0,4.11,0
0.7083,873,926,599,786,578,751,946,1060,860,1130,1100,1290,1010,1060,720,863,924,839,723,768,804,840,888,966,1120,1220,1260,1230,1230,1250,1230,1450,1430,1380,1530,1300,1570,1470,1500,1350,1230,1430,1330,1040,943,980,966,794,815,900,915,897,838,977,745,748,462,414,321,263,169,139,64.8,40.1,42.8,29.3,30.2,11.6,4.01,4.11,0
0.7118,374,984,648,872,962,752,1250,843,1030,1170,1140,1040,1040,999,984,953,736,848,925,947,892,800,870,1090,1030,1150,1160,1100,1350,1300,1360,1330,1560,1440,1540,1500,1520,1430,1320,1280,1200,1320,1180,1180,947,904,1130,848,1000,870,809,956,865,722,673,660,611,368,334,221,170,129,78.4,82,42.9,29.4,0,11.6,4.01,4.11,0
0.7153,374,520,648,916,1420,957,1010,1140,860,1330,1360,1070,1060,1080,1160,1070,1020,871,824,873,998,799,1060,966,1040,1110,1120,1220,1310,1480,1390,1490,1460,1390,1560,1440,1440,1330,1230,1260,1150,1200,1160,1180,1050,999,972,1040,920,852,876,833,859,784,786,629,565,439,298,198,120,127,105,76.5,46.4,33,86.6,15.5,0,0,0
0.7187,624,520,797,1090,1310,1430,1590,1310,1330,1480,941,1220,1060,1050,1210,889,923,795,693,871,750,992,939,1090,1060,1150,1350,1300,1290,1440,1480,1390,1410,1390,1590,1230,1370,1250,1440,1240,1180,1090,1250,1080,1150,959,1070,943,831,823,766,824,829,808,817,648,541,437,324,238,161,130,91.2,56,17.9,18.3,33.9,27.1,4.01,8.06,0
0.7222,560,811,898,1350,1230,1020,1400,1090,1690,1420,1180,1330,1090,1040,1050,966,1180,893,753,816,970,895,993,1000,1170,1100,1140,1340,1290,1270,1350,1460,1390,1400,1440,1400,1480,1260,1250,1300,1220,1080,985,1160,1170,981,821,933,926,873,858,873,822,835,775,580,578,369,304,244,157,144,69.4,75.1,50,22,18.8,7.68,7.88,4.11,8.15
0.7257,750,1100,1100,1270,1080,1330,1560,1360,1640,1820,1260,1660,1310,1170,1140,876,923,1000,975,928,812,791,1180,1160,1040,1080,1250,1300,1190,1400,1240,1520,1370,1500,1250,1410,1360,1460,1220,1290,1430,1080,1210,1070,969,957,974,1060,966,820,892,893,812,789,794,656,509,478,319,260,169,98,76.1,50.7,57.1,36.7,7.48,11.6,7.88,4.11,0
0.7292,687,405,1300,1570,1350,1500,1590,1280,1670,1310,1540,1350,1440,1320,1320,1210,1040,1040,1140,901,1080,953,856,1160,1250,1080,1240,1220,1300,1350,1360,1490,1510,1430,1440,1530,1340,1310,1280,1230,1230,1150,1130,1240,1070,1070,988,998,957,893,945,849,946,787,699,641,501,409,305,195,161,107,124,54.1,39.3,33,18.8,3.91,19.8,4.11,0
0.7326,624,1220,1400,1920,1380,1740,1400,1830,1600,1640,1860,1930,1620,1470,1230,1190,1060,970,905,955,1110,1050,1020,728,1020,1230,1340,1430,1330,1380,1130,1470,1450,1470,1420,1560,1470,1350,1390,1230,1240,1180,1040,1100,1110,1090,1000,1050,927,977,860,828,847,893,662,592,512,487,372,224,172,97.8,70.7,35.4,64.3,33,15.1,7.68,4.01,8.06,16.5
0.7361,1120,1160,1200,1180,2040,2050,1800,1470,1890,1900,1980,1730,1520,1570,1730,1460,1180,1360,1110,1160,1210,1030,1200,1120,1130,1350,1250,1220,1340,1500,1370,1440,1460,1490,1650,1510,1470,1390,1250,1410,1180,1120,1190,1100,1240,1030,960,1030,944,928,815,939,922,871,719,753,602,433,325,223,169,111,98.8,40.1,42.8,25.7,15.1,7.68,4.01,4.11,0
0.7396,437,1270,1200,1220,1930,1880,1770,1830,2210,1910,1940,1820,1790,1910,1440,1530,1510,1640,1210,1160,1290,1290,1220,1250,1360,1370,1310,1210,1450,1370,1440,1490,1450,1720,1580,1510,1440,1540,1530,1170,1260,1340,1220,1190,1260,1130,1060,1050,976,915,875,940,741,840,753,698,482,452,369,197,187,125,82.5,61.3,57.1,14.7,30.1,7.68,0,12.2,0
0.7431,750,984,1850,1790,2160,2050,1680,2210,2280,1990,2380,2110,1970,1820,1800,1630,1790,1370,1400,1390,1340,1430,1420,1220,1250,1270,1310,1370,1320,1420,1460,1400,1580,1550,1520,1380,1420,1410,1370,1350,1250,1380,1190,1090,1200,1090,1030,952,1010,997,899,971,976,796,759,636,510,389,306,221,131,107,73.6,75.3,42.8,33,33.9,31,23.8,4.11,16.5
0.7465,624,1620,1400,1260,1730,1980,1980,2210,2650,3120,2380,2220,2400,2180,2190,2210,2000,1830,1680,1350,1460,1580,1210,1250,1260,1350,1580,1340,1470,1440,1620,1530,1580,1510,1480,1510,1520,1380,1420,1380,1380,1400,1260,1260,1130,1210,951,902,962,966,892,972,925,807,737,678,623,499,290,209,202,85.2,95.1,64.5,39.3,25.7,33.9,3.91,27.8,4.11,0
0.75,624,1390,1740,1790,1690,2320,2100,2480,2430,2660,2440,2710,2910,2320,2500,2370,1840,1880,1930,1800,1710,1550,1220,1370,1380,1470,1370,1550,1500,1730,1550,1660,1570,1450,1540,1410,1540,1640,1430,1410,1340,1290,1370,1220,1280,1130,1020,985,991,909,1010,887,1050,917,825,662,565,477,265,256,164,146,75.8,55.9,53.6,29.4,15.1,15.5,4.01,0,8.15
0.7535,624,1620,1340,1660,2310,2490,2260,3220,2480,3030,3550,2680,3160,3000,3090,2750,2440,2160,2340,1770,1970,1760,1910,1630,1560,1460,1580,1680,1510,1510,1560,1590,1730,1710,1820,1770,1630,1530,1460,1540,1450,1310,1330,1250,1300,1180,1160,1130,1040,1060,970,910,873,848,705,604,523,443,309,233,197,147,93.3,77.1,75,36.7,18.8,34.8,11.9,8.06,8.15
0.7569,687,1040,1740,1880,1730,2490,2720,2560,3370,3230,3340,2990,3230,3330,3100,2720,2930,2830,2330,2210,2230,2050,1700,1800,1820,1600,1540,1580,1730,1510,1700,1740,1780,1600,1610,1560,1600,1540,1510,1540,1540,1340,1260,1200,1290,1150,1230,1100,1060,1130,1020,953,837,910,852,756,545,466,339,185,135,124,76.4,90.8,57.1,40.4,11.3,11.6,11.9,8.06,0
0.7604,750,1390,1550,2090,2500,2660,2290,3430,3190,3920,3830,3570,3660,3410,3310,3430,3150,2850,2780,2660,2570,2500,1910,1730,1910,1720,1660,1660,1810,1710,1630,1650,1570,1780,1720,1610,1720,1720,1700,1500,1370,1320,1280,1190,1240,1250,1220,1070,1090,992,914,1030,796,786,722,716,586,514,329,285,187,123,84.5,47.5,39.3,25.7,18.8,3.91,19.9,12.2,0
0.7639,997,1100,1250,1830,2390,2290,3020,2640,2870,3720,4050,3700,4000,3890,3310,3440,3390,3460,2870,2610,2530,2320,2290,1880,1930,1760,1870,1690,1780,1660,1790,1700,1690,1780,1650,1600,1780,1700,1630,1620,1500,1490,1390,1430,1280,1380,1200,1030,1050,930,936,885,861,875,812,699,581,450,268,259,146,129,64,64.9,50,29.4,7.48,11.6,19.9,12.2,8.15
0.7674,810,1620,1300,1790,1890,2360,2810,3460,3240,4230,3550,4010,4050,3970,3950,4160,3630,3380,3150,3100,2930,2680,2370,2300,2000,2100,1760,1820,1670,1730,1890,1740,1770,1720,1770,1830,1730,1600,1660,1570,1380,1600,1310,1350,1300,1330,1290,1270,1070,1020,949,878,808,792,835,649,616,406,395,250,171,158,87.8,70,50,33,30.2,19.4,4.01,8.06,0
0.7708,687,926,1050,2180,2230,2460,2440,3460,3510,3960,4210,4170,4090,4370,4390,4400,4120,3860,3390,3550,3140,2910,2750,2460,2120,1770,1830,1700,1850,1740,1740,1680,1850,1940,1820,1780,1960,1760,1770,1550,1620,1480,1410,1410,1440,1340,1060,1220,949,1120,945,838,887,866,746,731,554,469,380,212,218,154,73.3,50.9,50,47.7,3.81,7.68,4.01,12.2,0
0.7743,374,1100,1200,1790,2160,2590,3200,3620,3360,3700,4260,4120,4580,4310,4750,3990,4420,4220,3900,3670,3460,3350,2700,2510,2210,2210,1980,1970,2190,2010,1780,1910,1830,1840,1890,1810,1760,1620,1780,1700,1610,1620,1570,1370,1460,1450,1270,1080,1030,1160,1060,927,906,808,828,623,556,511,340,253,173,75.1,86.6,54.6,53.6,18.4,22.6,15.5,27.8,12.2,8.15
0.7778,810,1040,997,1790,1850,2460,2170,3540,3610,3830,4490,4130,4860,4740,4960,4680,4310,4320,4350,3580,3500,3310,3010,3100,2290,2290,2190,2110,1850,1900,1940,1740,1850,1860,1950,1700,1890,1900,1810,1730,1690,1570,1570,1390,1400,1200,1210,1050,1110,1240,955,1030,906,812,841,709,547,557,348,270,157,112,81.9,52.7,46.4,14.7,7.48,23.2,19.9,8.06,8.15
0.7812,560,1160,1300,1920,2160,2420,2810,3130,3360,4030,4490,4150,4980,4740,5270,5270,4550,4700,4540,4460,3830,3500,3480,3180,2770,2530,2380,2250,2100,2060,1830,1980,1810,1840,2010,1880,2110,1940,1720,1910,1580,1820,1580,1290,1530,1360,1300,1220,1050,1270,1140,1090,990,937,849,680,563,395,356,248,150,124,69.5,66.5,46.4,22,3.81,34.8,11.9,8.06,0
0.7847,124,984,1200,1610,1350,2900,2810,2910,3710,3670,4490,4300,4630,5150,5170,4650,4320,4560,4460,4270,4280,3810,3550,3060,2710,2520,2430,2110,2070,1980,2130,2090,2060,1900,2080,1910,2010,1980,1890,2010,1820,1670,1710,1560,1570,1500,1320,1160,1120,1090,1190,964,994,833,815,716,595,497,343,311,244,125,116,66.1,53.6,22,30.2,31,0,0,0
0.7882,500,1100,797,1310,2150,2560,2750,3320,3310,3920,4290,4700,4900,4910,5110,5390,5280,5090,5020,4660,4580,3740,3850,3480,3010,2600,2530,2230,2280,2010,2110,2210,2130,1980,2160,1890,2060,2140,2110,2030,1690,1720,1620,1500,1470,1280,1480,1220,1130,1180,1180,1030,1030,836,812,809,554,491,340,292,202,104,122,83.6,60.7,36.7,18.9,11.6,11.9,0,0
0.7917,250,811,997,1090,1810,2660,2200,3510,2800,3830,3730,4500,4910,5040,5150,5090,5090,4980,5290,4920,4560,4490,4450,3540,3060,2750,2880,2470,2270,2190,2430,2110,2060,1960,2010,2180,2160,2020,2280,1850,1840,1750,1620,1490,1530,1510,1330,1240,1210,1300,1120,975,903,893,843,728,531,519,383,262,167,120,124,28.1,50,25.7,15.1,19.3,23.8,8.06,0
0.7951,437,811,1050,1480,1620,2150,2690,2990,3150,3560,3910,3930,4960,5390,4850,4780,5230,5500,4850,5100,4920,4530,4190,3940,3480,3180,2480,2490,2210,2190,2240,2120,1930,2220,2160,2130,2190,2110,2030,1910,2040,1670,1720,1640,1590,1550,1360,1190,1310,1080,1130,1110,942,1020,864,778,654,534,345,212,204,129,97.9,68.4,50,51.4,37.7,11.6,19.9,12.2,8.15
0.7986,374,1040,1100,1260,1580,2120,2720,2530,3510,3680,4170,4080,5030,4940,4940,5540,5720,5380,5450,5400,4910,4870,4500,4000,3470,3060,3020,2860,2460,2390,2060,2430,2020,2300,2310,2410,2340,2200,2150,2040,1920,1700,1760,1980,1470,1580,1430,1540,1290,1160,1200,1130,998,879,882,866,628,447,388,331,223,122,111,80.4,64.3,43.9,18.9,19.3,15.9,8.06,0
0.8021,500,811,898,1610,1770,2050,2410,3100,3190,3940,4170,5190,4450,5450,5570,5290,5490,5940,5300,5530,5420,5080,5210,4050,4160,3540,3220,2800,2480,2300,2280,2240,2220,2440,2300,2360,2280,2230,2230,2030,2040,1870,1940,1640,1550,1560,1380,1360,1300,1260,1070,1040,1070,940,942,717,652,547,331,272,219,195,86.9,61.5,93,43.9,18.9,23.2,4.01,12.2,8.15
0.8056,560,869,946,1830,1540,2050,2320,2690,3190,3540,4610,5030,4990,5100,5280,5700,5600,5620,5250,5490,5250,5160,4800,4260,4050,3590,3200,3040,2690,2250,2490,2310,2440,2430,2260,2550,2310,2120,2360,2190,2190,1950,2020,1800,1750,1500,1480,1450,1360,1220,1220,1270,1010,909,797,758,653,543,398,263,202,191,120,124,60.7,25.7,30.2,11.6,7.88,20.4,0
0.809,311,464,1400,1090,1350,2600,2590,2590,3270,3250,4270,4460,4900,5440,5790,5950,5620,6060,5420,5290,5590,5480,5310,4910,4470,3810,3480,3370,2790,2730,2610,2500,2320,2600,2370,2420,2310,2320,2370,2170,2260,2030,2050,1900,1740,1720,1420,1490,1340,1300,1320,998,989,961,909,697,660,586,470,330,184,213,96.6,77.1,64.3,40.4,18.9,19.4,23.8,8.06,8.15
0.8125,374,811,797,959,1810,2010,2530,2370,3490,3300,3980,4730,4960,6270,5260,5720,6500,6020,6410,6030,6350,5300,5120,4800,3990,3910,3510,3330,2880,2880,2440,2650,2490,2350,2510,2620,2400,2530,2460,2210,2310,2040,2080,1940,1850,1600,1500,1410,1480,1220,1230,1300,1130,1050,778,774,742,475,435,299,240,156,116,95.9,60.7,58.6,22.6,23.2,15.9,4.11,0
0.816,63.1,1160,1150,1350,1350,2010,3050,3430,3390,4540,4270,5040,5470,5690,5250,6100,6900,6870,7140,6990,6830,6410,6230,6150,5550,5240,4410,4270,3780,3350,3260,3060,3350,2960,3140,3030,3090,3150,2840,2830,2830,2690,2410,2430,2200,2120,1930,1720,1750,1470,1380,1310,1280,1170,1020,862,865,701,500,455,288,213,153,85.5,67.8,55.1,18.9,34.8,15.9,4.11,0
0.8194,437,984,1490,1480,1730,1950,2530,3100,3340,3500,4200,5140,5570,6270,6050,6440,6470,6900,7310,7270,7160,6840,7360,6240,6310,5400,4820,4350,4000,3630,3390,3400,3200,3360,3010,3120,3270,3130,2940,2750,2670,2630,2390,2160,2270,2020,1920,1780,1530,1700,1450,1320,1140,1160,1100,850,869,633,583,333,273,200,146,107,67.8,51.4,33.9,34.8,15.9,4.11,41
0.8229,437,926,847,961,1650,2360,2290,3430,3240,3540,4500,4700,4900,5830,6360,6680,6900,7490,7310,7810,8030,7980,7210,7390,6460,6030,5610,5240,4910,4450,3860,3810,3810,3550,3630,3630,3340,3180,3200,2950,2930,2660,2640,2520,2180,2030,1920,1880,1840,1500,1710,1590,1340,1240,1040,1130,872,745,535,400,297,237,186,116,143,88,75.3,42.6,19.9,16.3,8.15
0.8264,560,811,1150,872,1890,2190,2290,2610,2730,3650,4150,4400,5190,6070,6230,6940,6870,7420,7360,7640,7800,8140,7660,7080,6740,6150,5970,5030,4730,4160,3830,3720,3630,3340,3450,3520,3330,3480,3130,2970,2830,2700,2800,2500,2410,2100,1900,1800,1890,1610,1440,1660,1370,1340,1150,1090,853,728,597,424,384,177,160,135,53.5,110,30.2,31,23.8,12.2,8.15
0.8299,313,926,898,1180,1620,1840,1710,2480,3240,3830,4090,4520,5330,5640,6130,6850,6720,7160,7370,7970,8160,8140,8040,7620,6680,5960,5360,4900,4860,4400,3840,3850,3670,3590,3420,3680,3370,3420,3290,3160,3080,2730,2780,2390,2140,2190,1980,2030,1600,1640,1650,1660,1540,1360,1240,1040,957,687,543,466,316,235,214,121,114,58.6,22.6,50.3,27.8,20.4,24.6
0.8333,500,347,797,1000,1270,1470,2380,2420,2850,3850,3910,4090,5210,6010,5430,6540,6770,6560,7390,7680,7770,7570,7860,7510,6580,6240,5570,4900,4450,4150,3900,3660,3390,3510,3520,3510,3390,3340,3490,3180,2980,2720,2750,2710,2280,2180,1970,1910,1660,1610,1440,1470,1530,1380,1100,1010,997,841,548,403,353,245,213,72.8,107,58.6,56.6,61.9,23.8,36.5,8.15
0.8368,187,520,797,1220,1190,1780,2050,2910,2360,3300,3700,4420,5030,5160,6030,6180,5890,7440,7430,7560,7320,7710,7390,7210,6620,6200,5610,5310,4720,4380,4030,3750,3830,3650,3540,3540,3390,3360,3210,3350,2900,2980,2720,2390,2300,2110,2060,1780,1630,1720,1590,1480,1340,1290,1120,1090,836,743,611,421,345,233,214,109,125,103,37.7,27.1,35.7,16.3,16.5
0.8403,124,811,997,872,1190,1570,1560,2230,2430,3340,3540,3910,4660,4920,5480,6460,6140,6710,6840,7710,7320,7010,7140,6900,6380,5540,5430,4910,4400,4110,3930,3450,3570,3650,3440,3620,3850,3180,3150,3220,2940,3040,2630,2600,2140,2110,2070,1790,1860,1520,1610,1640,1470,1330,1220,1070,878,734,527,403,327,290,178,146,132,73.3,79,46.4,27.8,28.4,16.5
0.8437,500,347,698,698,1150,1430,1740,1990,2730,3170,3140,4240,4330,5350,5340,5850,6680,6330,6210,7090,6980,7600,6650,6940,6660,6100,5050,4900,4180,3970,4020,3730,3610,3740,3620,3580,3370,3220,3080,3300,2910,2970,2760,2780,2530,2300,2090,1880,1730,1800,1620,1600,1480,1440,1180,1160,928,757,591,394,352,254,116,152,139,77,41.5,27.1,31.8,20.2,0
0.8472,311,288,549,1090,1190,1230,2010,2020,2230,3160,3260,4370,4250,5340,5770,5570,6630,6540,7200,6890,6450,6980,6570,6530,6540,6050,5450,5000,4560,4200,3900,3820,3870,3800,3750,3730,3740,3370,3280,3150,2960,2790,2760,2700,2360,2290,2320,1950,1930,1710,1590,1580,1360,1260,1110,1110,817,767,632,432,316,234,172,146,125,69.6,52.8,31,35.7,36.5,32.9
0.8507,374,464,797,1180,1190,1330,1950,2040,3070,3030,3520,4130,5100,5110,5910,6020,6510,6190,7170,6720,7600,7070,6970,6730,6350,5860,5390,4740,4730,4190,3680,3910,3900,3680,3600,3510,3370,3600,3420,3200,3070,3140,3030,2730,2470,2310,2210,2120,1830,1720,1660,1720,1450,1260,1210,1020,967,727,536,455,425,261,148,121,75,73.3,49,31,35.7,20.2,32.9
0.8542,374,869,549,1180,1350,1470,2320,2040,2190,2660,3190,3840,4260,4850,5760,5900,6160,6200,6810,7210,7130,7300,6840,7120,6230,5970,5270,4740,4360,4190,3880,3950,3680,3600,3720,3890,3710,3680,3460,3240,3250,3050,2800,2650,2670,2440,2020,2130,2140,1850,1390,1530,1590,1300,1100,1020,1100,724,513,483,383,299,176,119,111,76.9,67.7,42.6,27.8,24.3,8.15
0.8576,313,811,847,872,1420,1710,1950,2150,2730,3010,3770,3600,4410,5220,5370,5560,6110,6160,6760,6530,6790,7300,6800,6540,6380,5670,5360,5040,4580,4230,4240,3900,3920,3780,3510,3590,3610,3530,3220,3310,3420,3120,2870,2560,2620,2410,2260,1990,2140,1940,1750,1610,1500,1390,1270,1040,918,777,520,442,304,249,152,104,111,80.6,60.2,34.8,19.8,28.4,24.6
0.8611,311,637,847,1050,1120,1060,1680,2150,2430,2770,2860,3600,4330,4780,5180,5130,6140,6270,7010,6580,7020,6830,6780,6180,5950,5610,5370,4680,4270,4180,3840,3950,3860,3750,3760,3770,3800,3700,3510,3530,3270,3140,2730,2980,2630,2540,2240,2130,2000,1810,1680,1520,1480,1200,1280,1060,874,845,615,514,353,235,235,137,89.3,103,45.1,46.5,19.9,8.06,24.6
0.8646,187,637,946,1050,1190,1400,1860,1690,2410,2650,3260,3860,3930,4900,4800,5330,5370,6030,5570,6320,6650,6740,6520,6070,5740,5930,5470,4730,4480,3990,4200,3890,3820,3520,3800,3710,3760,3830,3460,3470,3330,3200,2970,2630,2560,2480,2350,1950,2010,2000,1780,1620,1580,1420,1130,977,888,683,666,506,355,293,200,147,111,55.1,56.6,34.8,27.8,8.06,0
0.8681,374,694,597,1130,885,1470,1160,1740,2550,2990,2860,3260,3740,4260,5200,5740,5250,6390,5950,6590,6500,6320,6190,6240,6100,5680,4980,5060,4500,4260,3900,3870,3730,3940,3460,3980,3550,3650,3830,3340,3280,3210,2830,2920,2590,2480,2160,2210,1920,1770,1630,1470,1690,1380,1120,1070,975,761,539,410,324,261,205,118,118,66.1,52.8,38.7,11.9,28.4,16.5
0.8715,500,464,748,786,1150,1600,1680,1630,1960,2630,2920,3620,3890,4040,4660,5460,5430,5520,5860,5990,6290,6530,6410,6050,5560,5330,5120,4790,4260,3950,4290,4170,3980,3820,3660,4170,3770,3620,3620,3570,3460,3250,2880,2780,2490,2190,2180,2170,2010,1790,1720,1760,1440,1330,1260,1240,1000,744,578,478,270,183,210,145,82.1,33,60.2,61.9,19.9,12.2,16.5
0.875,560,579,997,742,1270,1160,1680,2120,1840,2320,2560,3200,3900,4210,4480,4530,5400,5840,5630,6000,6280,6480,6290,6440,5680,5410,5410,4920,4480,4550,4050,4030,4020,3830,4010,3810,3840,3750,3660,3520,3420,3040,3160,2580,2690,2550,2120,2280,2100,1820,1770,1600,1510,1280,1230,1150,985,767,630,451,372,252,175,149,67.8,58.6,33.9,31,31.7,36.5,0
0.8785,313,752,498,786,924,1370,1100,1720,2260,2320,2540,2930,3240,3710,4410,4910,5240,5850,5930,5870,5610,6290,5980,5750,5460,5180,4900,5170,4420,4070,3900,3970,4150,4100,3800,3670,3670,3730,3330,3590,3380,3250,3100,2880,2620,2420,2450,2310,1840,1780,1760,1540,1430,1280,1300,1140,938,759,583,462,315,247,205,181,107,69.6,45.1,54.2,19.8,20.2,32.9
0.8819,437,347,399,1000,1080,1190,1190,1550,1720,2520,2800,2800,3340,3190,4160,4680,4810,5010,5370,5350,6350,5880,6250,6110,5440,5340,4980,4900,4650,4160,4040,3960,3980,4010,3820,3830,3920,3730,3540,3370,3280,3160,3010,2800,2980,2250,2300,2060,2060,1950,1730,1630,1560,1390,1130,1110,1080,745,524,441,362,246,182,113,107,62.4,41.5,61.9,51.6,24.3,16.5
0.8854,250,520,547,350,1120,922,1280,1610,2060,1950,2840,3260,3030,3650,4010,4680,4900,5050,5480,5620,5480,6010,5870,5760,5310,5260,5240,4910,4410,4340,3890,4190,4100,4010,3980,3800,4060,3680,3610,3570,3400,3280,3020,2900,2880,2410,2350,2100,2030,1780,1720,1480,1580,1360,1170,1040,893,663,577,361,387,228,168,111,100,88,90.4,38.7,27.8,28.4,16.5
0.8889,187,290,746,567,846,1260,945,1720,2160,2100,2880,2820,3720,3390,4540,4120,5020,5550,5490,5550,5880,5720,6380,5880,5770,5480,4900,4940,4660,4640,4550,4550,4120,4510,4210,3960,3980,3920,3540,3590,3600,3110,3180,2810,2660,2660,2340,2020,2020,1930,1550,1610,1390,1400,1260,1000,950,763,614,470,347,272,263,144,85.7,77,56.6,42.6,11.9,24.3,8.15
0.8924,374,347,349,742,809,957,886,1220,1770,2120,2560,2170,3140,3520,3600,4380,4200,4960,5370,5950,5610,5370,5930,5700,5610,5290,5060,4800,4590,4280,4620,4270,4390,4690,4430,4070,4190,3760,3810,3810,3560,3210,2900,2720,2720,2200,2470,2270,2290,1980,1700,1630,1500,1260,1240,1050,865,755,551,463,382,295,185,174,78.6,84.3,33.9,61.9,7.88,20.2,24.6
0.8958,374,464,549,786,654,1200,1370,1470,1720,2080,2280,2690,2760,3550,3600,4240,4660,4800,5420,5700,5500,5920,5740,5510,5820,5710,5030,4890,4860,4650,4240,4340,4690,4530,4370,4140,3940,3850,3640,3470,3320,3200,3060,2840,2630,2550,2480,2100,2200,1930,1780,1630,1560,1480,1230,936,929,772,587,446,400,297,164,141,118,76.9,30.2,31,35.7,40.6,24.6
0.8993,124,405,498,611,1040,1130,1280,1630,1550,1810,2540,2770,3170,3110,3780,4490,4250,4660,5450,5510,5630,5740,5530,5780,5230,5490,5170,4720,4840,4750,4270,4730,4630,4320,4140,4180,4070,3880,3830,3690,3670,3010,3080,2970,2720,2350,2110,2060,2040,1820,1550,1690,1500,1350,1290,1100,1090,750,524,542,380,262,177,119,139,73.3,26.4,27.1,39.7,16.3,24.6
0.9028,250,347,448,828,1000,854,886,1550,1820,1820,2420,2440,2610,3180,3580,3580,4260,4240,4650,5190,5270,5620,5060,5910,5280,5490,5070,4940,4810,4500,4720,4490,4630,4530,4440,4340,4130,3860,3960,3620,3300,3290,3130,3010,2670,2370,2450,2100,1980,1710,1910,1680,1490,1370,1070,1070,931,734,661,508,380,274,155,142,121,69.6,52.8,38.7,43.7,12.2,8.15
0.9062,311,232,299,567,962,955,1250,1690,1570,1660,1600,2730,2380,3060,3360,3660,3910,4220,4370,4550,4880,5010,4790,5000,4960,4820,4780,4740,4260,4530,4490,4350,4230,4140,4090,4100,3850,4010,3720,3640,3080,3020,2780,2580,2280,2250,2250,1990,1950,1660,1620,1470,1320,1330,1090,1010,857,775,554,453,275,308,176,72.3,96.4,77,60.2,34.8,19.8,12.2,32.9
0.9097,187,347,399,567,1040,648,977,1500,1570,1750,1660,2150,2330,2510,2490,3490,3560,4180,4620,4270,4730,4900,4880,4820,5040,4600,4560,4430,4270,4460,4360,4290,4700,4060,4190,4370,4130,3820,3850,3550,3260,3090,3000,2650,2580,2380,2270,1970,1890,1770,1550,1460,1400,1300,1130,1010,1000,677,612,478,371,295,176,101,92.8,99,49,23.2,19.8,28.4,24.6
0.9132,187,347,599,480,616,717,1040,1390,1690,1660,2020,2110,2780,2600,3120,3380,3570,4510,4510,5200,5440,5050,5250,5430,5140,4750,4780,4700,4860,4630,4310,4460,4630,4490,4030,4040,4070,4000,3650,3400,3400,3030,2980,2840,2580,2350,2190,1980,1870,1620,1660,1730,1410,1300,1070,1110,874,736,552,416,338,213,191,125,104,84.3,56.4,23.2,31.8,20.4,24.6
0.9167,437,232,648,523,654,888,1130,1120,1370,1750,2060,2180,2510,3050,3060,3350,4110,4410,4430,4550,4920,5050,5080,4980,5260,5110,4860,4450,4590,4640,4800,4680,4530,4400,4200,4140,4110,4090,3660,3670,3380,3340,2940,2770,2440,2420,2370,2270,1830,1640,1610,1430,1430,1270,1210,1110,913,768,657,436,334,266,217,166,92.8,80.8,79.1,42.6,11.9,20.4,8.15
0.9201,374,579,648,523,424,889,1460,1200,1670,2120,2100,2060,2640,2740,3540,3120,3760,4340,4240,4880,5000,5330,5240,5510,5180,4950,4940,4700,4670,4650,4640,4900,4660,4800,4480,4330,4040,3860,3890,3470,3540,3050,3220,2850,2570,2600,2270,2010,1650,1680,1780,1490,1450,1270,1130,1050,855,798,583,438,394,211,170,162,132,73.3,60.2,42.6,35.7,48.7,0
0.9236,63.1,520,448,698,846,989,1560,1420,1650,1750,2340,2240,2640,3050,3110,3520,3910,3890,4480,4960,5240,5350,5100,5110,5120,5110,4810,4940,4970,4460,4680,4690,4690,4590,4530,4290,4090,3940,3790,3480,3470,3340,2940,2780,2680,2340,2210,2040,2120,1780,1700,1520,1440,1340,1190,1050,942,697,636,423,324,250,210,95.7,111,88,49,50.3,15.9,24.3,49.2
0.9271,437,694,599,611,924,1090,1340,1850,1990,1990,2140,2290,2780,3100,3140,3800,4370,4370,4740,4900,5010,5260,5430,5260,4990,5080,5010,4710,4790,4650,4810,5170,5060,4460,4560,4320,4140,3800,3870,3590,3670,3360,2930,2840,2710,2410,2430,2080,1920,1690,1650,1490,1400,1220,1140,1060,1030,752,610,450,350,273,126,146,114,51.4,49,34.8,11.9,12.2,41
0.9306,500,694,698,1050,1120,1190,1370,1690,1820,1990,2200,2490,2740,2830,3500,3560,4240,4250,4940,5370,5190,5090,5610,5310,5410,5090,4930,5020,4830,5060,4650,4960,4810,4690,4690,4440,4260,4020,3770,3830,3460,3540,3350,3150,2690,2500,2200,2050,1910,1790,1710,1500,1370,1300,1150,1050,882,865,626,500,319,266,252,115,75,95.3,56.4,54.2,27.8,36.5,41
0.934,250,579,448,915,1390,991,1710,1310,2010,2080,2220,2600,3060,3390,3330,3940,3980,4680,4810,5710,5590,5040,5360,5490,5140,5210,5600,4790,4940,4960,4760,5030,4960,4790,4240,4420,4060,3980,3860,3530,3680,3270,3110,2880,2590,2470,2190,2120,2120,1720,1610,1500,1460,1340,1150,1050,891,717,615,554,329,284,192,153,118,76.9,67.9,50.3,47.6,20.2,8.15
0.9375,437,347,549,698,1120,957,1160,1630,1470,2010,2220,2400,3060,3230,3790,3640,4080,4880,4520,5370,5670,5750,5850,5560,5840,5320,5370,5510,4830,4600,4910,4840,4830,4500,4510,4360,4320,4060,3760,3550,3460,3530,3220,2900,2530,2470,2260,2070,1890,1830,1750,1610,1640,1260,1290,1030,896,692,554,428,395,244,185,124,104,117,64.1,42.6,19.9,20.4,0
0.941,250,464,549,1130,1080,1370,1740,1420,1520,1820,2100,2330,2660,3190,3330,4070,4300,4890,4890,5390,5540,5300,5360,5540,5700,5660,5570,5290,4720,4810,4620,4880,4660,4890,4560,4370,4170,4060,3870,3860,3700,3480,3060,2760,2720,2530,2290,2090,1880,1910,1700,1540,1370,1380,1220,954,1000,893,674,480,377,241,233,102,118,125,56.4,58,23.8,8.06,32.7
0.9444,437,290,898,567,1230,1090,1130,1360,1690,1880,2300,2440,2500,3010,3610,3780,4170,4960,4420,4910,5350,5420,5680,5710,5420,5490,5340,5330,5100,5050,5170,4890,5070,4680,4350,4380,4310,4180,3820,3710,3430,3110,3110,3020,2570,2550,2380,2220,1990,1820,1570,1520,1330,1310,1290,1190,1120,759,665,443,331,209,185,126,92.8,91.7,79.1,27.1,23.8,24.3,8.15
0.9479,187,520,549,698,1120,990,1190,1630,1840,2170,2040,2770,2910,3100,3570,3980,4170,4400,4930,5240,5190,5600,5550,5750,5530,5580,5460,5260,4840,4810,4970,4890,5100,4760,4680,4410,4620,4150,3850,3910,3540,3410,3330,3050,2830,2660,2340,2070,1910,1760,1720,1560,1370,1430,1330,1240,889,833,630,460,398,242,173,133,118,66.1,56.4,46.5,35.7,16.3,8.15
0.9514,313,405,498,524,1230,1260,1250,1660,1600,1990,2160,2070,2500,2870,3830,3290,4180,4230,5060,5120,4950,5190,5790,5610,5430,5900,5670,5580,5280,5090,5170,4630,4800,4810,4660,4490,4510,4250,4060,3620,3720,3170,3060,3060,2720,2480,2400,2060,2160,1690,1560,1750,1360,1420,1230,1180,1050,791,646,501,401,256,186,121,104,95.3,64.1,77.4,23.8,20.2,16.5
0.9549,187,405,648,830,770,1060,1430,1500,1500,1750,2200,2270,2490,3080,3260,3980,3910,4300,4720,5390,5460,5550,5700,5630,5610,5470,5440,5360,5190,5060,4940,5300,4960,5210,4540,4320,4340,4180,3920,4110,3780,3460,3040,2930,2830,2440,2290,2100,2050,1800,1630,1710,1400,1430,1300,1100,929,744,613,504,375,222,210,158,93,99,52.8,58,51.6,8.06,32.9
0.9583,313,637,547,655,1040,853,946,1170,1840,2170,2340,2750,2550,3010,3150,3980,3970,4850,4790,5060,5460,5370,5620,5640,5750,5440,5390,5380,5190,5310,5060,5030,4690,4860,4800,4420,4640,4190,3940,3660,3590,3250,3040,2830,2890,2810,2460,2110,2160,1940,1660,1450,1500,1330,1300,1080,941,873,730,495,421,279,236,135,111,54.9,67.7,15.5,7.88,20.4,0
0.9618,437,347,299,742,539,888,640,1230,1450,1530,2100,2680,2510,2890,3460,3660,4250,4450,4560,4990,5650,5460,5650,5330,5780,5720,5820,5260,5520,5460,4940,5220,4940,4550,4770,4560,4380,4470,3990,3890,3630,3630,3200,2770,2740,2550,2340,2280,1980,1920,1700,1520,1400,1400,1200,1070,1030,856,579,469,455,324,253,120,85.7,62.4,49,46.5,23.8,24.3,16.5
0.9653,250,232,748,611,577,990,1100,1470,1650,1900,1940,2790,2830,3210,3210,3490,3930,4490,4510,4830,5260,4740,5470,5820,5380,5320,5330,5350,5460,5420,5300,4960,5000,4890,4580,4570,4560,4040,3940,3990,3580,3360,3150,3020,2760,2680,2280,2110,1940,1830,1920,1570,1540,1420,1150,1270,959,778,726,526,361,209,226,125,100,47.7,67.7,42.6,27.8,28.4,24.6
0.9687,124,464,299,655,693,990,1070,1530,1790,1770,2080,2200,2160,2800,2960,3850,4030,3960,4530,4690,5350,5550,5280,5250,5640,5620,5630,5550,5470,5590,5210,5080,4870,4640,4610,4570,4470,4370,3980,3880,3560,3490,3320,2990,2830,2610,2300,2130,1870,1710,1690,1620,1540,1370,1230,1160,1020,848,735,546,384,261,175,158,89.2,80.8,64.1,34.8,23.8,24.3,16.5
0.9722,313,58.5,299,524,848,820,1160,1390,1720,1460,2100,2150,2410,2650,3170,3080,3780,4180,4480,4450,4820,5220,5420,5440,5620,5820,5680,5350,5270,5050,4970,4920,4890,4890,4450,4780,4320,4090,3820,4020,3430,3570,3030,2920,2820,2550,2320,2300,1910,1950,1810,1680,1500,1240,1180,1110,889,763,615,561,396,257,194,128,114,58.6,64.1,23.2,43.7,4.11,41
0.9757,124,290,448,742,346,546,976,1440,1520,1820,1760,2380,2740,2900,2810,3640,3800,3920,4250,4910,4860,4920,5090,5190,5370,5460,5520,5510,5300,5060,5150,5060,4460,4840,4750,4100,4150,3870,3960,3530,3570,3630,3270,2880,2760,2530,2150,2140,2050,1840,1530,1540,1350,1410,1200,1100,1040,882,686,539,353,231,191,136,114,77,75.3,42.6,19.9,8.06,16.5
0.9792,187,232,200,567,424,889,1040,1060,1330,1660,1880,2170,2380,2720,2730,3380,3450,4190,4000,4430,4740,5360,5490,5210,4890,5270,5640,5380,5200,4790,5240,5160,4580,4610,5010,4510,4140,4170,4220,3950,3610,3200,2910,2940,2670,2510,2370,2170,1910,1940,1700,1490,1540,1370,1230,1070,1000,945,627,503,406,263,188,149,150,80.6,33.9,38.7,19.9,20.2,8.15
0.9826,63.1,290,349,348,809,922,976,1140,1350,1350,1820,2290,2350,2620,2960,3410,3370,3950,4510,4790,4710,4920,5070,5240,5350,5390,5110,5050,5070,5010,5080,5230,4670,4610,4790,4530,4230,4140,3780,3760,3570,3130,3070,3080,2770,2430,2360,2250,2020,1940,1670,1690,1450,1240,1010,1140,945,902,629,518,468,285,170,112,96.4,80.8,60.2,15.5,39.7,16.3,24.6
0.9861,187,232,549,828,616,991,1100,871,1650,1570,2160,2110,1950,2570,2870,3010,3320,4170,4500,4190,4710,4860,5470,5560,5730,5090,5380,5550,5270,4970,5080,5290,4960,4710,4480,4450,4240,4230,3730,3960,3650,3220,3160,2850,2710,2440,2250,2210,2050,2030,1520,1810,1380,1320,1210,1070,1040,855,666,583,489,264,184,125,129,66.1,26.4,38.7,27.8,36.5,24.6
0.9896,250,637,448,350,848,957,794,1390,1280,1460,1760,2370,2260,2330,3030,3130,3780,3500,4080,4260,4440,4840,5360,5090,5410,5470,5770,5380,5380,5480,5030,4960,5000,4860,4950,4470,3940,4270,4040,3700,3390,3260,3060,2950,2640,2520,2470,2250,2060,1910,1730,1570,1300,1310,1360,1090,968,770,693,524,413,350,200,165,111,73.3,75.3,31,23.8,32.6,8.15
0.9931,187,579,250,611,809,546,1100,1140,1330,1460,1860,2000,2600,2620,2960,3250,3760,3890,3870,4430,4340,4640,4670,4910,5400,5520,5220,5080,5360,5480,5080,4860,4750,5000,4550,4440,4250,4100,3540,3520,3690,3190,3120,2900,2700,2630,2410,2100,1970,1670,1750,1510,1350,1380,1210,1170,979,825,677,550,348,283,163,173,154,114,67.9,54.2,39.7,20.4,0
0.9965,187,232,648,698,731,957,1040,954,1160,1550,1500,1730,2300,2750,2360,3170,3280,3440,3860,4170,4530,4720,5110,5030,5140,5210,5280,5480,5320,5060,5070,4870,4670,4430,4320,4380,4310,3890,3900,3470,3640,3510,3120,2830,2920,2530,2250,1950,1990,1860,1760,1680,1420,1390,1220,1230,905,801,626,571,399,289,216,163,154,54.9,90.4,31,59.4,20.4,8.15
